EESchema Schematic File Version 5
EELAYER 30 0
EELAYER END
$Descr A4 11693 8268
encoding utf-8
Sheet 1 11
Title ""
Date ""
Rev ""
Comp ""
Comment1 ""
Comment2 ""
Comment3 ""
Comment4 ""
Comment5 ""
Comment6 ""
Comment7 ""
Comment8 ""
Comment9 ""
$EndDescr
BusAlias SERVO GND VCC SIG
BusAlias MOLEX 12VDC COM 5VDC
BusAlias I2C SDA SCL
BusAlias UART RX TX
BusAlias USB VBUS D- D+ GND
BusAlias QE GND IDX CHA VCC CHB
BusAlias PWR VCC GND
NoConn ~ 1600 6800
NoConn ~ 1700 2400
NoConn ~ 1700 2600
NoConn ~ 7400 4300
NoConn ~ 8100 1700
NoConn ~ 8100 1900
NoConn ~ 8100 2350
NoConn ~ 8100 2600
NoConn ~ 8100 2800
NoConn ~ 10150 5250
NoConn ~ 10250 5250
NoConn ~ 10350 5250
Entry Wire Line
	4150 3550 4250 3650
Entry Wire Line
	4150 5350 4250 5250
Entry Wire Line
	4250 3550 4350 3650
Entry Wire Line
	4250 5350 4350 5250
Entry Wire Line
	4350 5350 4450 5250
Entry Wire Line
	4400 6400 4500 6500
Entry Wire Line
	4400 6750 4500 6850
Entry Wire Line
	4400 7100 4500 7200
Entry Wire Line
	4450 5350 4550 5250
Entry Wire Line
	4750 5250 4850 5350
Entry Wire Line
	9200 1200 9300 1300
Entry Wire Line
	9200 3200 9300 3100
Entry Wire Line
	9300 1200 9400 1300
Entry Wire Line
	9300 3200 9400 3100
Entry Wire Line
	9500 1300 9600 1200
Entry Wire Line
	9500 3100 9600 3200
Entry Wire Line
	9600 1300 9700 1200
Entry Wire Line
	9600 3100 9700 3200
Entry Wire Line
	9700 1500 9800 1400
Entry Wire Line
	9700 2900 9800 3000
Entry Wire Line
	9800 1500 9900 1400
Entry Wire Line
	9850 4200 9950 4300
Entry Wire Line
	9850 5800 9950 5700
Entry Wire Line
	9950 4200 10050 4300
Entry Wire Line
	9950 5800 10050 5700
Entry Wire Line
	10050 4200 10150 4300
Entry Wire Line
	10150 4200 10250 4300
Entry Wire Line
	10250 4200 10350 4300
Wire Wire Line
	4100 4200 4100 4250
Wire Wire Line
	4150 4250 4100 4250
Wire Wire Line
	4150 4300 4150 4250
Wire Wire Line
	4150 4900 4100 4900
Wire Wire Line
	4650 4900 4600 4900
Wire Wire Line
	4950 6250 4950 6300
Wire Wire Line
	4950 6350 4950 6400
Wire Wire Line
	4950 6600 4950 6650
Wire Wire Line
	4950 6700 4950 6750
Wire Wire Line
	4950 6950 4950 7000
Wire Wire Line
	4950 7050 4950 7100
Wire Bus Line
	1600 1500 1700 1500
Wire Bus Line
	1600 1700 1700 1700
Wire Bus Line
	1600 1900 1700 1900
Wire Bus Line
	1600 2100 1700 2100
Wire Bus Line
	1600 4250 1700 4250
Wire Bus Line
	1600 4550 1700 4550
Wire Wire Line
	1600 6600 1700 6600
Wire Bus Line
	1600 6700 1700 6700
Wire Bus Line
	1600 6800 1700 6800
Wire Bus Line
	1600 6900 1700 6900
Wire Bus Line
	1700 1300 1600 1300
Wire Bus Line
	1700 1400 1600 1400
Wire Bus Line
	1700 1600 1600 1600
Wire Bus Line
	1700 2000 1600 2000
Wire Bus Line
	1700 4450 1600 4450
Wire Bus Line
	2950 6600 3050 6600
Wire Bus Line
	3200 1300 3300 1300
Wire Bus Line
	3200 1400 3300 1400
Wire Bus Line
	3200 1500 3300 1500
Wire Bus Line
	3200 1700 3300 1700
Wire Bus Line
	3200 1800 3300 1800
Wire Wire Line
	3200 1900 3300 1900
Wire Bus Line
	3200 4250 3100 4250
Wire Wire Line
	3200 4350 3100 4350
Wire Bus Line
	3200 4550 3100 4550
Wire Bus Line
	3300 2000 3200 2000
Wire Bus Line
	3300 2100 3200 2100
Wire Bus Line
	3300 2200 3200 2200
Wire Bus Line
	4000 2000 3900 2000
Wire Wire Line
	4100 5000 4100 4900
Wire Wire Line
	4150 4800 4150 4900
Wire Bus Line
	4300 6200 4400 6200
Wire Bus Line
	4350 5350 4450 5350
Wire Bus Line
	4400 6550 4300 6550
Wire Bus Line
	4400 6900 4300 6900
Wire Wire Line
	4450 4200 4450 4300
Wire Wire Line
	4600 5000 4600 4900
Wire Wire Line
	4650 4300 4650 4200
Wire Wire Line
	4650 4800 4650 4900
Wire Wire Line
	4750 4200 4750 4300
Wire Bus Line
	4850 5350 4950 5350
Wire Wire Line
	4850 6250 4950 6250
Wire Wire Line
	4850 6350 4950 6350
Wire Wire Line
	4850 6600 4950 6600
Wire Wire Line
	4850 6700 4950 6700
Wire Wire Line
	4850 6950 4950 6950
Wire Wire Line
	4850 7050 4950 7050
Wire Wire Line
	4950 6400 5050 6400
Wire Wire Line
	4950 6750 5050 6750
Wire Wire Line
	4950 7100 5050 7100
Wire Wire Line
	5050 6300 4950 6300
Wire Wire Line
	5050 6650 4950 6650
Wire Wire Line
	5050 7000 4950 7000
Wire Bus Line
	6800 2650 6900 2650
Wire Bus Line
	6800 2800 6900 2800
Wire Wire Line
	6900 1950 6800 1950
Wire Wire Line
	6900 2250 6800 2250
Wire Wire Line
	7400 4300 7500 4300
Wire Bus Line
	7500 4850 7400 4850
Wire Bus Line
	7600 5300 7500 5300
Wire Bus Line
	8100 2150 8200 2150
Wire Wire Line
	8150 5500 8250 5500
Wire Wire Line
	8150 5600 8250 5600
Wire Wire Line
	8150 5700 8250 5700
Wire Wire Line
	8150 5800 8250 5800
Wire Wire Line
	8650 4300 8750 4300
Wire Wire Line
	8750 4500 8650 4500
Wire Wire Line
	8750 4600 8650 4600
Wire Bus Line
	8750 4700 8650 4700
Wire Bus Line
	8750 4850 8650 4850
Wire Wire Line
	9800 2450 9800 2550
Wire Bus Line
	9950 4200 10050 4200
Wire Bus Line
	3950 5350 4150 5350
Wire Bus Line
	4150 5350 4350 5350
Wire Bus Line
	4400 6200 4400 6400
Wire Bus Line
	4400 6550 4400 6750
Wire Bus Line
	4400 6900 4400 7100
Wire Bus Line
	4750 3750 4950 3750
Wire Bus Line
	9100 1200 9300 1200
Wire Bus Line
	9100 3200 9300 3200
Wire Bus Line
	9600 1200 9800 1200
Wire Bus Line
	9600 3200 9800 3200
Wire Bus Line
	9750 4200 9950 4200
Wire Bus Line
	9750 5800 9950 5800
Wire Bus Line
	9800 1400 10000 1400
Wire Bus Line
	9800 3000 10000 3000
Wire Bus Line
	10050 4200 10250 4200
Wire Bus Line
	4750 3750 4750 4000
Wire Bus Line
	3950 3550 4250 3550
Wire Bus Line
	4450 3750 4450 4050
Wire Bus Line
	3900 2000 3900 2400
Wire Bus Line
	7600 5300 7600 5700
Wire Wire Line
	4250 4800 4250 5250
Wire Wire Line
	4350 5250 4350 4800
Wire Wire Line
	4450 5250 4450 4800
Wire Wire Line
	4550 3850 4550 4300
Wire Wire Line
	4550 5250 4550 4800
Wire Wire Line
	4750 5250 4750 4800
Wire Wire Line
	9700 1500 9700 1950
Wire Wire Line
	9700 2900 9700 2450
Wire Wire Line
	9800 1950 9800 1500
Wire Wire Line
	9950 4300 9950 4750
Wire Wire Line
	9950 5250 9950 5700
Wire Wire Line
	10050 4300 10050 4750
Wire Wire Line
	10050 5700 10050 5250
Wire Wire Line
	10150 4300 10150 4750
Wire Wire Line
	10250 4300 10250 4750
Wire Wire Line
	10350 4300 10350 4750
Wire Bus Line
	3950 3750 4450 3750
Wire Wire Line
	4500 6850 5050 6850
Wire Wire Line
	5050 6500 4500 6500
Wire Wire Line
	5050 7200 4500 7200
Wire Wire Line
	4250 3650 4250 4300
Wire Wire Line
	4350 3650 4350 4300
Wire Wire Line
	9300 1300 9300 1950
Wire Wire Line
	9300 2450 9300 3100
Wire Wire Line
	9400 1300 9400 1950
Wire Wire Line
	9400 2450 9400 3100
Wire Wire Line
	9500 1300 9500 1950
Wire Wire Line
	9500 2450 9500 3100
Wire Wire Line
	9600 1300 9600 1950
Wire Wire Line
	9600 2450 9600 3100
Wire Bus Line
	3200 2400 3900 2400
Wire Bus Line
	3200 2600 4000 2600
Wire Notes Line
	1000 7400 1000 6000
Wire Notes Line
	5800 6000 5800 7400
Wire Notes Line
	1000 1000 1000 2900
Wire Notes Line
	4800 2900 4800 1000
Wire Notes Line
	6900 4000 6900 5950
Wire Notes Line
	10500 4000 10500 5950
Wire Notes Line
	1000 3350 1000 5500
Wire Notes Line
	5550 5500 5550 3350
Wire Notes Line
	6300 1000 6300 3350
Wire Notes Line
	10500 1000 10500 3350
Wire Notes Line
	6900 4000 10500 4000
Wire Notes Line
	6900 5950 10500 5950
Wire Notes Line
	1000 2900 4800 2900
Wire Notes Line
	4800 1000 1000 1000
Wire Notes Line
	6300 1000 10500 1000
Wire Notes Line
	10500 3350 6300 3350
Wire Notes Line
	1000 5500 5550 5500
Wire Notes Line
	5550 3350 1000 3350
Wire Notes Line
	1000 6000 5800 6000
Wire Notes Line
	5800 7400 1000 7400
Text Notes 1000 950  0    50   ~ 0
Interface Board
Text Notes 1000 3300 0    50   ~ 0
Scanning Mechanism subsystem + Interface Board connector
Text Notes 1000 5950 0    50   ~ 0
Motion Platform subsystem + Interface Board connectors
Text Notes 6300 950  0    50   ~ 0
Compute Platform subsystem + Interface Board connector
Text Notes 6900 3950 0    50   ~ 0
Power Supply subsystem + Interface Board connectors
Text Label 1600 1300 2    50   ~ 0
WCI1{USB}
Text Label 1600 1400 2    50   ~ 0
WCI2{PWR}
Text Label 1600 1500 2    50   ~ 0
WCI3{PWR}
Text Label 1600 1600 2    50   ~ 0
WCI4{PWR}
Text Label 1600 1700 2    50   ~ 0
WCI5{PWR}
Text Label 1600 1900 2    50   ~ 0
WIP1{MOLEX}
Text Label 1600 2000 2    50   ~ 0
WIP2{USB}
Text Label 1600 2100 2    50   ~ 0
WIP3{PWR}
Text Label 1600 4250 2    50   ~ 0
WIL1{PWR}
Text Label 1600 4450 2    50   ~ 0
WIL4{PWR}
Text Label 1600 4550 2    50   ~ 0
WIL5{SERVO}
Text Label 1600 6600 2    50   ~ 0
WPM1
Text Label 1600 6700 2    50   ~ 0
WIM2{SERVO}
Text Label 1600 6900 2    50   ~ 0
WIM1{SERVO}
Text Label 3050 6600 0    50   ~ 0
WIM3{SERVO}
Text Label 3200 4250 0    50   ~ 0
WIL2{UART}
Text Label 3200 4350 0    50   ~ 0
WIL3
Text Label 3200 4550 0    50   ~ 0
WIL6{QE}
Text Label 3300 1300 0    50   ~ 0
WIM1{SERVO}
Text Label 3300 1400 0    50   ~ 0
WIM2{SERVO}
Text Label 3300 1500 0    50   ~ 0
WIM3{SERVO}
Text Label 3300 1700 0    50   ~ 0
WIL1{PWR}
Text Label 3300 1800 0    50   ~ 0
WIL2{UART}
Text Label 3300 1900 0    50   ~ 0
WIL3
Text Label 3300 2000 0    50   ~ 0
WIL4{PWR}
Text Label 3300 2100 0    50   ~ 0
WIL5{SERVO}
Text Label 3300 2200 0    50   ~ 0
WIL6{QE}
Text Label 3950 3550 2    50   ~ 0
WIL2{UART}
Text Label 3950 3750 2    50   ~ 0
WIL1{PWR}
Text Label 3950 5350 2    50   ~ 0
WIL6{QE}
Text Label 4250 3850 3    50   ~ 0
WIL2.RX
Text Label 4250 5250 1    50   ~ 0
WIL6.IDX
Text Label 4300 6200 2    50   ~ 0
WIM1{SERVO}
Text Label 4300 6550 2    50   ~ 0
WIM2{SERVO}
Text Label 4300 6900 2    50   ~ 0
WIM3{SERVO}
Text Label 4350 3850 3    50   ~ 0
WIL2.TX
Text Label 4350 5250 1    50   ~ 0
WIL6.CHA
Text Label 4450 5250 1    50   ~ 0
WIL6.VCC
Text Label 4500 6500 0    50   ~ 0
WIM1.SIG
Text Label 4500 6850 0    50   ~ 0
WIM2.SIG
Text Label 4500 7200 0    50   ~ 0
WIM3.SIG
Text Label 4550 3850 3    50   ~ 0
WIL3
Text Label 4550 5250 1    50   ~ 0
WIL6.CHB
Text Label 4750 5250 1    50   ~ 0
WIL5.SIG
Text Label 4950 3750 0    50   ~ 0
WIL4{PWR}
Text Label 4950 5350 0    50   ~ 0
WIL5{SERVO}
Text Label 6800 1950 2    50   ~ 0
WCP1
Text Label 6800 2250 2    50   ~ 0
WCP2
Text Label 6800 2650 2    50   ~ 0
WCI2{PWR}
Text Label 6800 2800 2    50   ~ 0
WCI3{PWR}
Text Label 7400 4850 2    50   ~ 0
WIP2{USB}
Text Label 7500 5300 2    50   ~ 0
WIP1{MOLEX}
Text Label 8200 2150 0    50   ~ 0
WCI1{USB}
Text Label 8750 4300 0    50   ~ 0
WPM1
Text Label 8750 4500 0    50   ~ 0
WCP1
Text Label 8750 4600 0    50   ~ 0
WCP2
Text Label 8750 4700 0    50   ~ 0
WIP3{PWR}
Text Label 8750 4850 0    50   ~ 0
WIP1{MOLEX}
Text Label 9100 1200 2    50   ~ 0
WCI5{PWR}
Text Label 9100 3200 2    50   ~ 0
WCI3{PWR}
Text Label 9300 1500 3    50   ~ 0
WCI5.VCC
Text Label 9300 2900 1    50   ~ 0
WCI3.VCC
Text Label 9400 1500 3    50   ~ 0
WCI5.GND
Text Label 9400 2900 1    50   ~ 0
WCI3.GND
Text Label 9500 1500 3    50   ~ 0
WCI4.VCC
Text Label 9500 2900 1    50   ~ 0
WCI2.VCC
Text Label 9600 1500 3    50   ~ 0
WCI4.GND
Text Label 9600 2900 1    50   ~ 0
WCI2.GND
Text Label 9700 1500 3    50   ~ 0
WCI1.D-
Text Label 9700 2900 1    50   ~ 0
WCI1.VBUS
Text Label 9750 4200 2    50   ~ 0
WIP2{USB}
Text Label 9750 5800 2    50   ~ 0
WIP3{PWR}
Text Label 9800 1200 0    50   ~ 0
WCI4{PWR}
Text Label 9800 1500 3    50   ~ 0
WCI1.D+
Text Label 9800 3200 0    50   ~ 0
WCI2{PWR}
Text Label 9950 4300 3    50   ~ 0
WIP2.VBUS
Text Label 9950 5700 1    50   ~ 0
WIP3.VCC
Text Label 10000 1400 0    50   ~ 0
WCI1{USB}
Text Label 10000 3000 0    50   ~ 0
WCI1{USB}
Text Label 10050 4300 3    50   ~ 0
WIP2.D+
Text Label 10050 5700 1    50   ~ 0
WIP3.GND
Text Label 10150 4300 3    50   ~ 0
WIP2.D-
Text Label 10250 4300 3    50   ~ 0
WIP2.GND
Text Label 10350 4300 3    50   ~ 0
WIP2.GND
Text GLabel 4100 4200 1    50   Input ~ 0
GND
Text GLabel 4100 5000 3    50   Input ~ 0
GND
Text GLabel 4450 4200 1    50   Input ~ 0
5V
Text GLabel 4600 5000 3    50   Input ~ 0
GND
Text GLabel 4650 4200 1    50   Input ~ 0
GND
Text GLabel 4750 4200 1    50   Input ~ 0
12V
Text GLabel 4850 6250 0    50   Input ~ 0
GND
Text GLabel 4850 6350 0    50   Input ~ 0
5V_ESC
Text GLabel 4850 6600 0    50   Input ~ 0
GND
Text GLabel 4850 6700 0    50   Input ~ 0
5V_ESC
Text GLabel 4850 6950 0    50   Input ~ 0
GND
Text GLabel 4850 7050 0    50   Input ~ 0
5V_ESC
Text GLabel 8150 5500 0    50   Input ~ 0
12V
Text GLabel 8150 5600 0    50   Input ~ 0
GND
Text GLabel 8150 5700 0    50   Input ~ 0
GND
Text GLabel 8150 5800 0    50   Input ~ 0
5V
Text GLabel 9800 2550 3    50   Input ~ 0
GND
$Comp
L Connector_Generic:Conn_01x04 J3
U 1 1 5DD5D541
P 8450 5600
F 0 "J3" H 8530 5592 50  0000 L CNN
F 1 "Conn_01x04" H 8530 5501 50  0000 L CNN
F 2 "641737-1:641737-1" H 8450 5600 50  0001 C CNN
F 3 "~" H 8450 5600 50  0001 C CNN
	1    8450 5600
	1    0    0    -1  
$EndComp
$Comp
L Sprite_Sensors:SG #U1
U 1 1 5DB2B824
P 4100 1900
F 0 "#U1" H 4528 1800 50  0000 L CNN
F 1 "SG" H 4528 1709 50  0000 L CNN
F 2 "" H 4100 1900 50  0001 C CNN
F 3 "" H 4100 1900 50  0001 C CNN
	1    4100 1900
	1    0    0    -1  
$EndComp
$Comp
L Sprite_Telemetry:TX #U2
U 1 1 5DA9B85B
P 4100 2500
F 0 "#U2" H 4528 2403 50  0000 L CNN
F 1 "TX" H 4528 2312 50  0000 L CNN
F 2 "" H 4150 2550 50  0001 C CNN
F 3 "" H 4150 2550 50  0001 C CNN
	1    4100 2500
	1    0    0    -1  
$EndComp
$Comp
L Connector_Generic:Conn_02x05_Top_Bottom J5
U 1 1 5DD7217A
P 10150 4950
F 0 "J5" V 10150 5250 50  0000 L CNN
F 1 "Conn_02x05" V 10250 5250 50  0000 L CNN
F 2 "90130-3310:901303310" H 10150 4950 50  0001 C CNN
F 3 "~" H 10150 4950 50  0001 C CNN
	1    10150 4950
	0    -1   1    0   
$EndComp
$Comp
L Connector_Generic:Conn_02x06_Top_Bottom J4
U 1 1 5DD64A35
P 9500 2150
F 0 "J4" V 9500 2450 50  0000 L CNN
F 1 "Conn_02x06" V 9600 2450 50  0000 L CNN
F 2 "90130-3312:901303312" H 9500 2150 50  0001 C CNN
F 3 "~" H 9500 2150 50  0001 C CNN
	1    9500 2150
	0    -1   1    0   
$EndComp
$Comp
L Connector_Generic:Conn_02x07_Top_Bottom J1
U 1 1 5DD7516A
P 4450 4500
F 0 "J1" V 4454 4112 50  0000 R CNN
F 1 "Conn_02x07" V 4545 4112 50  0000 R CNN
F 2 "90130-3314:901303314" H 4450 4500 50  0001 C CNN
F 3 "~" H 4450 4500 50  0001 C CNN
	1    4450 4500
	0    -1   1    0   
$EndComp
$Comp
L Sprite_MotionPlatform:Conn_03x03_Servo J2
U 1 1 5DD889B5
P 5250 6400
F 0 "J2" H 5580 6096 50  0000 L CNN
F 1 "Conn_03x03_Servo" H 5580 6005 50  0001 L CNN
F 2 "Sprite:Conn_03x03_Servo" H 5250 6400 50  0001 C CNN
F 3 "" H 5250 6400 50  0001 C CNN
	1    5250 6400
	1    0    0    -1  
$EndComp
$Comp
L Sprite_ComputePlatform:CM #U3
U 1 1 5DB26E23
P 7000 1600
F 0 "#U3" H 7500 1765 50  0000 C CNN
F 1 "CM" H 7500 1674 50  0000 C CNN
F 2 "" H 7000 1600 50  0001 C CNN
F 3 "" H 7000 1600 50  0001 C CNN
	1    7000 1600
	1    0    0    -1  
$EndComp
$Sheet
S 1700 1200 1500 1500
U 5DA7C9DA
F0 "Interface Board" 50
F1 "Sheets/InterfaceBoard.sch" 50
F2 "LL_UART{UART}" I R 3200 1800 50 
F3 "LL_SYN" I R 3200 1900 50 
F4 "M_ST{SERVO}" I R 3200 1300 50 
F5 "M_TH{SERVO}" I R 3200 1400 50 
F6 "{USB}" I L 1700 1300 50 
F7 "M_RPM{SERVO}" I R 3200 1500 50 
F8 "PWR{MOLEX}" I L 1700 1900 50 
F9 "LL_PWR{PWR}" I R 3200 1700 50 
F10 "LM_PWR{PWR}" I R 3200 2000 50 
F11 "LM_PWM{SERVO}" I R 3200 2100 50 
F12 "LM_ENC{QE}" I R 3200 2200 50 
F13 "USB_PSU{USB}" I L 1700 2000 50 
F14 "USB_GPS{USB}" I R 3200 2400 50 
F15 "USB_XBEE{USB}" I R 3200 2600 50 
F16 "PWRBTN_IN{PWR}" I L 1700 2100 50 
F17 "PWRLED{PWR}" I L 1700 1500 50 
F18 "PWRBTN_OUT{PWR}" I L 1700 1400 50 
F19 "USB_E1{USB}" I L 1700 2400 50 
F20 "USB_E2{USB}" I L 1700 2600 50 
F21 "RESETBTN{PWR}" I L 1700 1600 50 
F22 "HDLED{PWR}" I L 1700 1700 50 
$EndSheet
$Sheet
S 1700 6500 1250 500 
U 5DA7CA58
F0 "Motion Platform" 50
F1 "Sheets/MotionPlatform.sch" 50
F2 "M5{SERVO}" I R 2950 6600 50 
F3 "M1" I L 1700 6600 50 
F4 "M4{SERVO}" I L 1700 6900 50 
F5 "M3{SERVO}" I L 1700 6800 50 
F6 "M2{SERVO}" I L 1700 6700 50 
$EndSheet
$Sheet
S 7500 4200 1150 750 
U 5DA8B5E5
F0 "Power Supply" 50
F1 "Sheets/PowerSupply.sch" 50
F2 "P1" I L 7500 4300 50 
F3 "P2" I R 8650 4500 50 
F4 "P3" I R 8650 4600 50 
F5 "P4{PWR}" I R 8650 4700 50 
F6 "P0" I R 8650 4300 50 
F7 "P6{MOLEX}" I R 8650 4850 50 
F8 "P5{USB}" I L 7500 4850 50 
$EndSheet
$Sheet
S 1700 4150 1400 500 
U 5DA8F5E4
F0 "Scanning Mechanism" 50
F1 "Sheets/ScanningMechanism.sch" 50
F2 "L3" I R 3100 4350 50 
F3 "L1{PWR}" I L 1700 4250 50 
F4 "L2{UART}" I R 3100 4250 50 
F5 "L6{QE}" I R 3100 4550 50 
F6 "L5{SERVO}" I L 1700 4550 50 
F7 "L4{PWR}" I L 1700 4450 50 
$EndSheet
$EndSCHEMATC
