(module "SOP65P640X110-16N" (layer F.Cu) (tedit 5DD4B29A)
  (descr "SOT403-1")
  (tags "Integrated Circuit")
  (attr smd)
  (fp_text reference "IC**" (at 0 -3.81) (layer F.SilkS)
    (effects (font (size 1 1) (thickness 0.15)))
  )
  (fp_text value "SOP65P640X110-16N" (at 0 3.175) (layer F.SilkS) hide
    (effects (font (size 0.4 0.4) (thickness 0.06)))
  )
  (fp_line (start -3.675 -2.85) (end -2.2 -2.85) (layer F.SilkS) (width 0.2))
  (fp_line (start -1.85 2.5) (end -1.85 -2.5) (layer F.SilkS) (width 0.2))
  (fp_line (start 1.85 2.5) (end -1.85 2.5) (layer F.SilkS) (width 0.2))
  (fp_line (start 1.85 -2.5) (end 1.85 2.5) (layer F.SilkS) (width 0.2))
  (fp_line (start -1.85 -2.5) (end 1.85 -2.5) (layer F.SilkS) (width 0.2))
  (fp_line (start -2.2 -1.85) (end -1.55 -2.5) (layer F.Fab) (width 0.1))
  (fp_line (start -2.2 2.5) (end -2.2 -2.5) (layer F.Fab) (width 0.1))
  (fp_line (start 2.2 2.5) (end -2.2 2.5) (layer F.Fab) (width 0.1))
  (fp_line (start 2.2 -2.5) (end 2.2 2.5) (layer F.Fab) (width 0.1))
  (fp_line (start -2.2 -2.5) (end 2.2 -2.5) (layer F.Fab) (width 0.1))
  (fp_line (start -3.925 2.8) (end -3.925 -2.8) (layer F.CrtYd) (width 0.05))
  (fp_line (start 3.925 2.8) (end -3.925 2.8) (layer F.CrtYd) (width 0.05))
  (fp_line (start 3.925 -2.8) (end 3.925 2.8) (layer F.CrtYd) (width 0.05))
  (fp_line (start -3.925 -2.8) (end 3.925 -2.8) (layer F.CrtYd) (width 0.05))
  (fp_text user "%R" (at 0 0) (layer F.Fab)
    (effects (font (size 0.4 0.4) (thickness 0.06)))
  )
  (pad "1" smd rect (at -2.938 -2.275 90) (size 0.45 1.475) (layers "F.Cu" "F.Paste" "F.Mask"))
  (pad "2" smd rect (at -2.938 -1.625 90) (size 0.45 1.475) (layers "F.Cu" "F.Paste" "F.Mask"))
  (pad "3" smd rect (at -2.938 -0.975 90) (size 0.45 1.475) (layers "F.Cu" "F.Paste" "F.Mask"))
  (pad "4" smd rect (at -2.938 -0.325 90) (size 0.45 1.475) (layers "F.Cu" "F.Paste" "F.Mask"))
  (pad "5" smd rect (at -2.938 0.325 90) (size 0.45 1.475) (layers "F.Cu" "F.Paste" "F.Mask"))
  (pad "6" smd rect (at -2.938 0.975 90) (size 0.45 1.475) (layers "F.Cu" "F.Paste" "F.Mask"))
  (pad "7" smd rect (at -2.938 1.625 90) (size 0.45 1.475) (layers "F.Cu" "F.Paste" "F.Mask"))
  (pad "8" smd rect (at -2.938 2.275 90) (size 0.45 1.475) (layers "F.Cu" "F.Paste" "F.Mask"))
  (pad "9" smd rect (at 2.938 2.275 90) (size 0.45 1.475) (layers "F.Cu" "F.Paste" "F.Mask"))
  (pad "10" smd rect (at 2.938 1.625 90) (size 0.45 1.475) (layers "F.Cu" "F.Paste" "F.Mask"))
  (pad "11" smd rect (at 2.938 0.975 90) (size 0.45 1.475) (layers "F.Cu" "F.Paste" "F.Mask"))
  (pad "12" smd rect (at 2.938 0.325 90) (size 0.45 1.475) (layers "F.Cu" "F.Paste" "F.Mask"))
  (pad "13" smd rect (at 2.938 -0.325 90) (size 0.45 1.475) (layers "F.Cu" "F.Paste" "F.Mask"))
  (pad "14" smd rect (at 2.938 -0.975 90) (size 0.45 1.475) (layers "F.Cu" "F.Paste" "F.Mask"))
  (pad "15" smd rect (at 2.938 -1.625 90) (size 0.45 1.475) (layers "F.Cu" "F.Paste" "F.Mask"))
  (pad "16" smd rect (at 2.938 -2.275 90) (size 0.45 1.475) (layers "F.Cu" "F.Paste" "F.Mask"))
  (model "74LVC157APW,118.stp"
    (at (xyz 0 0 0))
    (scale (xyz 1 1 1))
    (rotate (xyz 0 0 0))
  )
  (model "${KIPRJMOD}/Parts/3DModels/74LVC157APW_118.3dshapes/SOP65P640X110-16N.wrl"
    (at (xyz 0 0 0))
    (scale (xyz 393.7 393.7 393.7))
    (rotate (xyz 0 0 0))
  )
)
