(module "ABL110592MHZB2" (layer F.Cu) (tedit 5DD4B2DB)
  (descr "ABL-11.0592MHZ-B2-1")
  (tags "Crystal or Oscillator")
  (fp_text reference "Y**" (at -5.08 -3.81) (layer F.SilkS)
    (effects (font (size 1.27 1.27) (thickness 0.254)) (justify left))
  )
  (fp_text value "ABL110592MHZB2" (at 2.44 5.08) (layer F.SilkS) hide
    (effects (font (size 1.27 1.27) (thickness 0.254)))
  )
  (fp_arc (start -2.71 0) (end -2.71 2.5) (angle 180) (layer F.SilkS) (width 0.1))
  (fp_arc (start 7.59 0) (end 7.59 -2.5) (angle 180) (layer F.SilkS) (width 0.1))
  (fp_arc (start -2.71 0) (end -2.71 2.5) (angle 180) (layer F.Fab) (width 0.2))
  (fp_arc (start 7.59 0) (end 7.59 -2.5) (angle 180) (layer F.Fab) (width 0.2))
  (fp_line (start 7.59 2.5) (end -2.71 2.5) (layer F.SilkS) (width 0.1))
  (fp_line (start -2.71 -2.5) (end 7.59 -2.5) (layer F.SilkS) (width 0.1))
  (fp_line (start 7.59 2.5) (end -2.71 2.5) (layer F.Fab) (width 0.2))
  (fp_line (start -2.71 -2.5) (end 7.59 -2.5) (layer F.Fab) (width 0.2))
  (fp_line (start -6.21 3.5) (end -6.21 -3.5) (layer F.CrtYd) (width 0.1))
  (fp_line (start 11.09 3.5) (end -6.21 3.5) (layer F.CrtYd) (width 0.1))
  (fp_line (start 11.09 -3.5) (end 11.09 3.5) (layer F.CrtYd) (width 0.1))
  (fp_line (start -6.21 -3.5) (end 11.09 -3.5) (layer F.CrtYd) (width 0.1))
  (fp_text user "%R" (at 2.44 0) (layer F.Fab)
    (effects (font (size 1.27 1.27) (thickness 0.254)))
  )
  (pad "1" thru_hole circle (at 0 0) (size 1.205 1.205) (drill 0.657) (layers *.Cu *.Mask))
  (pad "2" thru_hole circle (at 4.88 0) (size 1.205 1.205) (drill 0.657) (layers *.Cu *.Mask))
  (model "ABL-24.000MHZ-B2.stp"
    (at (xyz 0 0 0))
    (scale (xyz 1 1 1))
    (rotate (xyz 0 0 0))
  )
  (model "${KIPRJMOD}/Parts/3DModels/ABL-24.000MHZ-B2.3dshapes/ABL110592MHZB2.wrl"
    (at (xyz 0 0 0))
    (scale (xyz 393.7 393.7 393.7))
    (rotate (xyz 0 0 0))
  )
)
