(module "901303310" (layer F.Cu) (tedit 5DD4B255)
  (descr "90130-3310-4")
  (tags "Connector")
  (fp_text reference "J**" (at 12.7 2.54 180 unlocked) (layer F.SilkS)
    (effects (font (size 1 1) (thickness 0.15)) (justify left))
  )
  (fp_text value "901303310" (at 5.08 -6.35) (layer F.SilkS) hide
    (effects (font (size 1.27 1.27) (thickness 0.254)))
  )
  (fp_text user "%R" (at 5.08 -8.89) (layer F.Fab)
    (effects (font (size 1.27 1.27) (thickness 0.254)))
  )
  (fp_line (start -1.52 -13.44) (end 11.68 -13.44) (layer F.Fab) (width 0.2))
  (fp_line (start 11.68 -13.44) (end 11.68 -2.54) (layer F.Fab) (width 0.2))
  (fp_line (start 11.68 -2.54) (end -1.52 -2.54) (layer F.Fab) (width 0.2))
  (fp_line (start -1.52 -2.54) (end -1.52 -13.44) (layer F.Fab) (width 0.2))
  (fp_line (start -2.52 -14.44) (end 12.68 -14.44) (layer F.CrtYd) (width 0.1))
  (fp_line (start 12.68 -14.44) (end 12.68 1.825) (layer F.CrtYd) (width 0.1))
  (fp_line (start 12.68 1.825) (end -2.52 1.825) (layer F.CrtYd) (width 0.1))
  (fp_line (start -2.52 1.825) (end -2.52 -14.44) (layer F.CrtYd) (width 0.1))
  (fp_line (start -1.52 -2.54) (end -1.52 -13.44) (layer F.SilkS) (width 0.1))
  (fp_line (start -1.52 -13.44) (end 11.68 -13.44) (layer F.SilkS) (width 0.1))
  (fp_line (start 11.68 -13.44) (end 11.68 -2.54) (layer F.SilkS) (width 0.1))
  (pad "5" thru_hole circle (at 0 0) (size 1.65 1.65) (drill 1.1) (layers *.Cu *.Mask))
  (pad "10" thru_hole circle (at 0 -2.54) (size 1.65 1.65) (drill 1.1) (layers *.Cu *.Mask))
  (pad "4" thru_hole circle (at 2.54 0) (size 1.65 1.65) (drill 1.1) (layers *.Cu *.Mask))
  (pad "9" thru_hole circle (at 2.54 -2.54) (size 1.65 1.65) (drill 1.1) (layers *.Cu *.Mask))
  (pad "3" thru_hole circle (at 5.08 0) (size 1.65 1.65) (drill 1.1) (layers *.Cu *.Mask))
  (pad "8" thru_hole circle (at 5.08 -2.54) (size 1.65 1.65) (drill 1.1) (layers *.Cu *.Mask))
  (pad "2" thru_hole circle (at 7.62 0) (size 1.65 1.65) (drill 1.1) (layers *.Cu *.Mask))
  (pad "7" thru_hole circle (at 7.62 -2.54) (size 1.65 1.65) (drill 1.1) (layers *.Cu *.Mask))
  (pad "1" thru_hole circle (at 10.16 0) (size 1.65 1.65) (drill 1.1) (layers *.Cu *.Mask))
  (pad "6" thru_hole circle (at 10.16 -2.54) (size 1.65 1.65) (drill 1.1) (layers *.Cu *.Mask))
  (model "90130-3310.stp"
    (at (xyz 0 0 0))
    (scale (xyz 1 1 1))
    (rotate (xyz 0 0 0))
  )
  (model "${KIPRJMOD}/Parts/3DModels/90130-3310.3dshapes/901303310.wrl"
    (offset (xyz 5 7.5 5))
    (scale (xyz 393.7 393.7 393.7))
    (rotate (xyz 180 0 180))
  )
)
