(module "641737-1" (layer F.Cu) (tedit 5DD368DF)
  (descr "641737-1")
  (tags "Connector")
  (fp_text reference "J**" (at 12.7 2.54 180 unlocked) (layer F.SilkS)
    (effects (font (size 1 1) (thickness 0.15)) (justify left))
  )
  (fp_text value "641737-1" (at -0.575 -3.81) (layer F.SilkS) hide
    (effects (font (size 1.27 1.27) (thickness 0.254)))
  )
  (fp_circle (center 7.523 1.984) (end 7.523 2.05578) (layer F.SilkS) (width 0.2))
  (fp_line (start 12.7 1) (end 8.623 1) (layer F.SilkS) (width 0.2))
  (fp_line (start -12.7 1) (end -8.623 1) (layer F.SilkS) (width 0.2))
  (fp_line (start -3.8 -12) (end 3.8 -12) (layer F.SilkS) (width 0.2))
  (fp_line (start -12.7 -12) (end -6.364 -12) (layer F.SilkS) (width 0.2))
  (fp_line (start 12.7 -12) (end 6.364 -12) (layer F.SilkS) (width 0.2))
  (fp_line (start 12.7 -12) (end 12.7 1) (layer F.SilkS) (width 0.2))
  (fp_line (start -12.7 -12) (end -12.7 1) (layer F.SilkS) (width 0.2))
  (fp_line (start -12.7 1) (end -12.7 -12) (layer F.Fab) (width 0.2))
  (fp_line (start 12.7 1) (end -12.7 1) (layer F.Fab) (width 0.2))
  (fp_line (start 12.7 -12) (end 12.7 1) (layer F.Fab) (width 0.2))
  (fp_line (start -12.7 -12) (end 12.7 -12) (layer F.Fab) (width 0.2))
  (fp_text user "%R" (at -0.575 -6.35) (layer F.Fab)
    (effects (font (size 1.27 1.27) (thickness 0.254)))
  )
  (pad "1" thru_hole circle (at 7.62 0) (size 2.4 2.4) (drill 1.6) (layers *.Cu *.Mask))
  (pad "2" thru_hole circle (at 2.54 0) (size 2.4 2.4) (drill 1.6) (layers *.Cu *.Mask))
  (pad "3" thru_hole circle (at -2.54 0) (size 2.4 2.4) (drill 1.6) (layers *.Cu *.Mask))
  (pad "4" thru_hole circle (at -7.62 0) (size 2.4 2.4) (drill 1.6) (layers *.Cu *.Mask))
  (pad "5" np_thru_hole circle (at -10.16 -2.54) (size 2.54 0) (drill 2.54) (layers *.Cu *.Mask))
  (pad "6" np_thru_hole circle (at -5.08 -10.16) (size 4 0) (drill 4) (layers *.Cu *.Mask))
  (pad "7" np_thru_hole circle (at 5.08 -10.16) (size 4 0) (drill 4) (layers *.Cu *.Mask))
  (pad "8" np_thru_hole circle (at 10.16 -2.54) (size 2.54 0) (drill 2.54) (layers *.Cu *.Mask))
  (model "641737-1.stp"
    (at (xyz 0 0 0))
    (scale (xyz 1 1 1))
    (rotate (xyz 0 0 0))
  )
  (model "${KIPRJMOD}/Parts/3DModels/641737-1.3dshapes/641737-1.stp"
    (offset (xyz 0 12.5 4))
    (scale (xyz 1 1 1))
    (rotate (xyz -90 0 180))
  )
)
