EESchema Schematic File Version 5
EELAYER 30 0
EELAYER END
$Descr A4 11693 8268
encoding utf-8
Sheet 8 11
Title ""
Date ""
Rev ""
Comp ""
Comment1 ""
Comment2 ""
Comment3 ""
Comment4 ""
Comment5 ""
Comment6 ""
Comment7 ""
Comment8 ""
Comment9 ""
$EndDescr
Connection ~ 4950 4750
Connection ~ 5250 2850
Connection ~ 6350 3050
Connection ~ 6450 2850
Connection ~ 7500 2950
NoConn ~ 7650 4650
NoConn ~ 7650 4750
NoConn ~ 7650 4850
NoConn ~ 7650 4950
NoConn ~ 7650 5050
NoConn ~ 7650 5150
NoConn ~ 8500 3350
NoConn ~ 8500 3550
NoConn ~ 9100 3450
Entry Wire Line
	2600 3000 2700 3100
Entry Wire Line
	2700 2900 2800 3000
Entry Wire Line
	2800 2700 2900 2800
Entry Wire Line
	2900 2600 3000 2700
Entry Wire Line
	3000 2500 3100 2600
Entry Wire Line
	8900 2600 9000 2500
Entry Wire Line
	9000 2700 9100 2600
Wire Wire Line
	4950 4700 4950 4750
Wire Wire Line
	4950 4750 4950 4800
Wire Bus Line
	2500 3000 2600 3000
Wire Wire Line
	3200 2600 3100 2600
Wire Wire Line
	4450 4400 4450 4300
Wire Wire Line
	4450 5000 4450 5100
Wire Wire Line
	4850 2850 4750 2850
Wire Wire Line
	4950 4300 4850 4300
Wire Wire Line
	4950 4400 4950 4300
Wire Wire Line
	4950 4750 5050 4750
Wire Wire Line
	4950 5100 4950 5200
Wire Wire Line
	5150 2850 5250 2850
Wire Wire Line
	5250 3450 5250 3550
Wire Wire Line
	5400 2850 5400 2950
Wire Wire Line
	5750 3350 5850 3350
Wire Wire Line
	6250 3050 6350 3050
Wire Wire Line
	6350 3250 6250 3250
Wire Wire Line
	6550 5150 6550 5250
Wire Wire Line
	6650 4450 6550 4450
Wire Wire Line
	6650 4550 6550 4550
Wire Wire Line
	6650 4650 6550 4650
Wire Wire Line
	6650 4750 6550 4750
Wire Wire Line
	6650 4850 6550 4850
Wire Wire Line
	6650 4950 6550 4950
Wire Wire Line
	6650 5050 6550 5050
Wire Wire Line
	6650 5150 6550 5150
Wire Wire Line
	7400 2950 7500 2950
Wire Wire Line
	7500 2950 7600 2950
Wire Wire Line
	7500 2950 7500 3050
Wire Wire Line
	7500 3350 7500 3450
Wire Wire Line
	7650 4450 7750 4450
Wire Wire Line
	7850 4650 7850 4550
Wire Wire Line
	8900 2600 8800 2600
Wire Bus Line
	9200 2600 9100 2600
Wire Wire Line
	5250 2850 5400 2850
Wire Bus Line
	2500 2900 2700 2900
Wire Wire Line
	3000 2700 3200 2700
Wire Wire Line
	6250 2850 6450 2850
Wire Wire Line
	6350 3050 6350 3250
Wire Wire Line
	6450 3450 6250 3450
Wire Wire Line
	7650 4550 7850 4550
Wire Wire Line
	9000 2700 8800 2700
Wire Bus Line
	9200 2500 9000 2500
Wire Bus Line
	2500 2700 2800 2700
Wire Wire Line
	2900 2800 3200 2800
Wire Wire Line
	5250 2850 5250 3150
Wire Wire Line
	5750 3050 5750 3350
Wire Wire Line
	6450 2850 6800 2850
Wire Wire Line
	2800 3000 3200 3000
Wire Bus Line
	2900 2600 2500 2600
Wire Wire Line
	5400 2950 5850 2950
Wire Wire Line
	6350 3050 6800 3050
Wire Wire Line
	2700 3100 3200 3100
Wire Bus Line
	3000 2500 2500 2500
Wire Wire Line
	6450 2850 6450 3450
Wire Wire Line
	4750 3050 5750 3050
Wire Notes Line
	4350 3650 4350 2500
Wire Notes Line
	7900 2500 7900 3650
Wire Notes Line
	4350 2500 7900 2500
Wire Notes Line
	7900 3650 4350 3650
Text Notes 4350 2450 0    50   ~ 0
Servo to Digital Converter\nInput: servo signal (from switch on RC controller, etc)\nOutput: 0-5V\nThe DPDT DIP switch (76SD01T) allows for changing the polarity
Text Label 3200 2600 0    50   ~ 0
IM1A.SIG
Text Label 3200 2700 0    50   ~ 0
IM2A.SIG
Text Label 3200 2800 0    50   ~ 0
IM3A.SIG
Text Label 3200 3000 0    50   ~ 0
IM1B.SIG
Text Label 3200 3100 0    50   ~ 0
IM2B.SIG
Text Label 4750 2850 2    50   ~ 0
IM3A.SIG
Text Label 4750 3050 2    50   ~ 0
0.5V
Text Label 5050 4750 0    50   ~ 0
0.5V
Text Label 6550 4450 2    50   ~ 0
C3D
Text Label 6550 4550 2    50   ~ 0
IM1A.SIG
Text Label 6550 4650 2    50   ~ 0
IM1B.SIG
Text Label 6550 4750 2    50   ~ 0
IM1Y.SIG
Text Label 6550 4850 2    50   ~ 0
IM2A.SIG
Text Label 6550 4950 2    50   ~ 0
IM2B.SIG
Text Label 6550 5050 2    50   ~ 0
IM2Y.SIG
Text Label 7600 2950 0    50   ~ 0
C3D
Text Label 8800 2600 2    50   ~ 0
IM1Y.SIG
Text Label 8800 2700 2    50   ~ 0
IM2Y.SIG
Text GLabel 4350 4300 0    50   Input ~ 0
5V_ESC
Text GLabel 4850 4300 0    50   Input ~ 0
5V_ESC
Text GLabel 7750 4450 2    50   Input ~ 0
5V_ESC
Text HLabel 2500 2500 0    50   Input ~ 0
IM1A{SERVO}
Text HLabel 2500 2600 0    50   Input ~ 0
IM2A{SERVO}
Text HLabel 2500 2700 0    50   Input ~ 0
IM3A{SERVO}
Text HLabel 2500 2900 0    50   Input ~ 0
IM1B{SERVO}
Text HLabel 2500 3000 0    50   Input ~ 0
IM2B{SERVO}
Text HLabel 9200 2500 2    50   Input ~ 0
IM1Y{SERVO}
Text HLabel 9200 2600 2    50   Input ~ 0
IM2Y{SERVO}
$Comp
L power:GND #PWR0110
U 1 1 5E57BAF0
P 4450 5100
F 0 "#PWR0110" H 4450 4850 50  0001 C CNN
F 1 "GND" H 4455 4927 50  0000 C CNN
F 2 "" H 4450 5100 50  0001 C CNN
F 3 "" H 4450 5100 50  0001 C CNN
	1    4450 5100
	1    0    0    -1  
$EndComp
$Comp
L power:GND #PWR0111
U 1 1 5E57B8D1
P 4950 5200
F 0 "#PWR0111" H 4950 4950 50  0001 C CNN
F 1 "GND" H 4955 5027 50  0000 C CNN
F 2 "" H 4950 5200 50  0001 C CNN
F 3 "" H 4950 5200 50  0001 C CNN
	1    4950 5200
	1    0    0    -1  
$EndComp
$Comp
L power:GND #PWR0113
U 1 1 5E57E63E
P 5250 3550
F 0 "#PWR0113" H 5250 3300 50  0001 C CNN
F 1 "GND" H 5255 3377 50  0000 C CNN
F 2 "" H 5250 3550 50  0001 C CNN
F 3 "" H 5250 3550 50  0001 C CNN
	1    5250 3550
	1    0    0    -1  
$EndComp
$Comp
L power:GND #PWR0109
U 1 1 5E581E0B
P 6550 5250
F 0 "#PWR0109" H 6550 5000 50  0001 C CNN
F 1 "GND" H 6555 5077 50  0000 C CNN
F 2 "" H 6550 5250 50  0001 C CNN
F 3 "" H 6550 5250 50  0001 C CNN
	1    6550 5250
	1    0    0    -1  
$EndComp
$Comp
L power:GND #PWR0112
U 1 1 5E57F715
P 7500 3450
F 0 "#PWR0112" H 7500 3200 50  0001 C CNN
F 1 "GND" H 7505 3277 50  0000 C CNN
F 2 "" H 7500 3450 50  0001 C CNN
F 3 "" H 7500 3450 50  0001 C CNN
	1    7500 3450
	1    0    0    -1  
$EndComp
$Comp
L power:GND #PWR0114
U 1 1 5E57BE52
P 7850 4650
F 0 "#PWR0114" H 7850 4400 50  0001 C CNN
F 1 "GND" H 7855 4477 50  0000 C CNN
F 2 "" H 7850 4650 50  0001 C CNN
F 3 "" H 7850 4650 50  0001 C CNN
	1    7850 4650
	1    0    0    -1  
$EndComp
$Comp
L Device:R_US R31
U 1 1 5DBD8C89
P 4950 4550
F 0 "R31" H 5018 4596 50  0000 L CNN
F 1 "18k" H 5018 4505 50  0000 L CNN
F 2 "Resistor_SMD:R_0603_1608Metric_Pad1.05x0.95mm_HandSolder" V 4990 4540 50  0001 C CNN
F 3 "~" H 4950 4550 50  0001 C CNN
	1    4950 4550
	1    0    0    -1  
$EndComp
$Comp
L Device:R_US R32
U 1 1 5DBD9A99
P 4950 4950
F 0 "R32" H 5018 4996 50  0000 L CNN
F 1 "2k" H 5018 4905 50  0000 L CNN
F 2 "Resistor_SMD:R_0603_1608Metric_Pad1.05x0.95mm_HandSolder" V 4990 4940 50  0001 C CNN
F 3 "~" H 4950 4950 50  0001 C CNN
	1    4950 4950
	1    0    0    -1  
$EndComp
$Comp
L Device:R_US R33
U 1 1 5DBCFCBE
P 5000 2850
F 0 "R33" V 4795 2850 50  0000 C CNN
F 1 "100k" V 4886 2850 50  0000 C CNN
F 2 "Resistor_SMD:R_0603_1608Metric_Pad1.05x0.95mm_HandSolder" V 5040 2840 50  0001 C CNN
F 3 "~" H 5000 2850 50  0001 C CNN
	1    5000 2850
	0    1    1    0   
$EndComp
$Comp
L Amplifier_Operational:LM358 U9
U 3 1 5DB9B0EC
P 4550 4700
F 0 "U9" H 4508 4746 50  0000 L CNN
F 1 "LM358" H 4508 4655 50  0000 L CNN
F 2 "LM358ADR:SOIC127P600X175-8N" H 4550 4700 50  0001 C CNN
F 3 "http://www.ti.com/lit/ds/symlink/lm2904-n.pdf" H 4550 4700 50  0001 C CNN
	3    4550 4700
	1    0    0    -1  
$EndComp
$Comp
L Device:CP1 C31
U 1 1 5DBEB0EE
P 5250 3300
F 0 "C31" H 5365 3346 50  0000 L CNN
F 1 "1.5u" H 5365 3255 50  0000 L CNN
F 2 "Capacitor_SMD:C_0805_2012Metric_Pad1.15x1.40mm_HandSolder" H 5250 3300 50  0001 C CNN
F 3 "~" H 5250 3300 50  0001 C CNN
	1    5250 3300
	1    0    0    -1  
$EndComp
$Comp
L Device:CP1 C32
U 1 1 5DBFE82F
P 7500 3200
F 0 "C32" H 7615 3246 50  0000 L CNN
F 1 "150u" H 7615 3155 50  0000 L CNN
F 2 "Capacitor_SMD:CP_Elec_6.3x5.4_Nichicon" H 7500 3200 50  0001 C CNN
F 3 "~" H 7500 3200 50  0001 C CNN
	1    7500 3200
	1    0    0    -1  
$EndComp
$Comp
L Amplifier_Operational:LM358 U9
U 1 1 5DB91F70
P 7100 2950
F 0 "U9" H 7100 3317 50  0000 C CNN
F 1 "LM358" H 7100 3226 50  0000 C CNN
F 2 "LM358ADR:SOIC127P600X175-8N" H 7100 2950 50  0001 C CNN
F 3 "http://www.ti.com/lit/ds/symlink/lm2904-n.pdf" H 7100 2950 50  0001 C CNN
	1    7100 2950
	1    0    0    -1  
$EndComp
$Comp
L Amplifier_Operational:LM358 U9
U 2 1 5E69B07C
P 8800 3450
F 0 "U9" H 8800 3817 50  0000 C CNN
F 1 "LM358" H 8800 3726 50  0000 C CNN
F 2 "LM358ADR:SOIC127P600X175-8N" H 8800 3450 50  0001 C CNN
F 3 "http://www.ti.com/lit/ds/symlink/lm2904-n.pdf" H 8800 3450 50  0001 C CNN
	2    8800 3450
	1    0    0    -1  
$EndComp
$Comp
L 76SD01T:76SD01T SW3
U 1 1 5DD5CF8E
P 6050 3150
F 0 "SW3" H 6050 3635 50  0000 C CNN
F 1 "76SD01T" H 6050 3544 50  0000 C CNN
F 2 "76SD01T:76SD01T" H 6050 3350 50  0001 C CNN
F 3 "" H 6050 3350 50  0001 C CNN
	1    6050 3150
	1    0    0    -1  
$EndComp
$Comp
L 74LVC157APW_118:74LVC157APW,118 IC2
U 1 1 5DB8C86D
P 6650 4450
F 0 "IC2" H 7150 4715 50  0000 C CNN
F 1 "74LVC157APW,118" H 7150 4624 50  0000 C CNN
F 2 "74LVC157APW_118:SOP65P640X110-16N" H 7500 4550 50  0001 L CNN
F 3 "https://componentsearchengine.com/Datasheets/1/74LVC157APW,118.pdf" H 7500 4450 50  0001 L CNN
F 4 "NEXPERIA - 74LVC157APW,118 - MUX, QUAD, 8 I/P, TSSOP-16" H 7500 4350 50  0001 L CNN "Description"
F 5 "1.1" H 7500 4250 50  0001 L CNN "Height"
F 6 "771-74LVC157APW-T" H 7500 4150 50  0001 L CNN "Mouser Part Number"
F 7 "https://www.mouser.com/Search/Refine.aspx?Keyword=771-74LVC157APW-T" H 7500 4050 50  0001 L CNN "Mouser Price/Stock"
F 8 "Nexperia" H 7500 3950 50  0001 L CNN "Manufacturer_Name"
F 9 "74LVC157APW,118" H 7500 3850 50  0001 L CNN "Manufacturer_Part_Number"
	1    6650 4450
	1    0    0    -1  
$EndComp
$EndSCHEMATC
