EESchema Schematic File Version 5
EELAYER 30 0
EELAYER END
$Descr A4 11693 8268
encoding utf-8
Sheet 5 11
Title ""
Date ""
Rev ""
Comp ""
Comment1 ""
Comment2 ""
Comment3 ""
Comment4 ""
Comment5 ""
Comment6 ""
Comment7 ""
Comment8 ""
Comment9 ""
$EndDescr
Connection ~ 650  4300
Connection ~ 650  4900
Connection ~ 650  5500
Connection ~ 650  6100
Connection ~ 650  6700
Connection ~ 650  7300
Connection ~ 1050 3700
Connection ~ 1050 4300
Connection ~ 1050 4900
Connection ~ 1050 5500
Connection ~ 1050 6100
Connection ~ 1050 6700
Connection ~ 1050 7300
Connection ~ 1600 1050
Connection ~ 1950 1050
Connection ~ 2050 2200
Connection ~ 2450 2200
Connection ~ 3000 1050
Connection ~ 4450 6050
Connection ~ 4450 7050
Connection ~ 4750 7300
Connection ~ 5100 7000
Connection ~ 5100 7350
Connection ~ 5100 7700
Connection ~ 5700 6450
Connection ~ 5700 6800
Connection ~ 5700 7000
Connection ~ 5700 7150
Connection ~ 5700 7350
Connection ~ 5700 7500
Connection ~ 5700 7700
Connection ~ 6050 6450
Connection ~ 6050 6800
Connection ~ 6300 6250
Connection ~ 6300 6450
Connection ~ 6300 6600
Connection ~ 6300 6950
Connection ~ 6300 7300
Connection ~ 6700 6250
Connection ~ 6700 6600
Connection ~ 6700 6950
Connection ~ 6700 7300
Connection ~ 6700 7650
Connection ~ 7100 6250
Connection ~ 7500 5850
Connection ~ 7500 6250
Connection ~ 7800 5850
Connection ~ 7800 6250
Connection ~ 9700 1300
Connection ~ 9700 2800
Connection ~ 9700 4300
Connection ~ 10500 1100
Connection ~ 10500 2600
Connection ~ 10500 4100
Connection ~ 10500 5600
NoConn ~ 6950 3150
NoConn ~ 9000 5700
NoConn ~ 9000 5800
NoConn ~ 9800 5800
Entry Wire Line
	1100 2100 1200 2200
Entry Wire Line
	1100 2200 1200 2300
Entry Wire Line
	1100 2300 1200 2400
Entry Wire Line
	2850 4150 2950 4250
Entry Wire Line
	2850 4250 2950 4350
Entry Wire Line
	2850 4350 2950 4450
Entry Wire Line
	2850 4650 2950 4750
Entry Wire Line
	2850 4750 2950 4850
Entry Wire Line
	2850 4850 2950 4950
Entry Wire Line
	2850 5150 2950 5250
Entry Wire Line
	2850 5250 2950 5350
Entry Wire Line
	2850 5350 2950 5450
Entry Wire Line
	2850 5650 2950 5750
Entry Wire Line
	2850 5750 2950 5850
Entry Wire Line
	2850 5850 2950 5950
Entry Wire Line
	2850 6150 2950 6250
Entry Wire Line
	2850 6250 2950 6350
Entry Wire Line
	2850 6350 2950 6450
Entry Wire Line
	2850 6650 2950 6750
Entry Wire Line
	2850 6750 2950 6850
Entry Wire Line
	2850 6850 2950 6950
Entry Wire Line
	2850 7150 2950 7250
Entry Wire Line
	2850 7250 2950 7350
Entry Wire Line
	2850 7350 2950 7450
Wire Wire Line
	700  7600 650  7600
Wire Wire Line
	2250 3050 2300 3050
Wire Wire Line
	2300 3050 2300 3100
Wire Wire Line
	4350 900  4350 850 
Wire Wire Line
	4450 7050 4400 7050
Wire Wire Line
	4450 7300 4500 7300
Wire Wire Line
	4500 7050 4450 7050
Wire Wire Line
	4700 7050 4750 7050
Wire Wire Line
	4750 7300 4700 7300
Wire Wire Line
	750  3050 850  3050
Wire Wire Line
	750  3700 650  3700
Wire Wire Line
	750  4300 650  4300
Wire Wire Line
	750  4900 650  4900
Wire Wire Line
	750  5500 650  5500
Wire Wire Line
	750  6100 650  6100
Wire Wire Line
	750  6700 650  6700
Wire Wire Line
	750  7300 650  7300
Wire Wire Line
	950  3700 1050 3700
Wire Wire Line
	950  4300 1050 4300
Wire Wire Line
	950  4900 1050 4900
Wire Wire Line
	950  5500 1050 5500
Wire Wire Line
	950  6100 1050 6100
Wire Wire Line
	950  6700 1050 6700
Wire Wire Line
	950  7300 1050 7300
Wire Bus Line
	1000 2100 1100 2100
Wire Wire Line
	1050 3050 1150 3050
Wire Wire Line
	1050 3700 1150 3700
Wire Wire Line
	1050 3900 1150 3900
Wire Wire Line
	1050 4300 1150 4300
Wire Wire Line
	1050 4500 1150 4500
Wire Wire Line
	1050 4900 1150 4900
Wire Wire Line
	1050 5100 1150 5100
Wire Wire Line
	1050 5500 1150 5500
Wire Wire Line
	1050 5700 1150 5700
Wire Wire Line
	1050 6100 1150 6100
Wire Wire Line
	1050 6300 1150 6300
Wire Wire Line
	1050 6700 1150 6700
Wire Wire Line
	1050 6900 1150 6900
Wire Wire Line
	1050 7300 1150 7300
Wire Wire Line
	1050 7500 1150 7500
Wire Wire Line
	1600 1150 1600 1050
Wire Wire Line
	1600 1450 1600 1350
Wire Wire Line
	1750 3700 1850 3700
Wire Wire Line
	1750 4300 1850 4300
Wire Wire Line
	1750 4900 1850 4900
Wire Wire Line
	1750 5500 1850 5500
Wire Wire Line
	1750 6100 1850 6100
Wire Wire Line
	1750 6700 1850 6700
Wire Wire Line
	1750 7300 1850 7300
Wire Wire Line
	1850 3900 1750 3900
Wire Wire Line
	1850 4500 1750 4500
Wire Wire Line
	1850 5100 1750 5100
Wire Wire Line
	1850 5700 1750 5700
Wire Wire Line
	1850 6300 1750 6300
Wire Wire Line
	1850 6900 1750 6900
Wire Wire Line
	1850 7500 1750 7500
Wire Wire Line
	1950 1150 1950 1050
Wire Wire Line
	1950 1350 1950 1450
Wire Wire Line
	2050 2200 2150 2200
Wire Wire Line
	2050 2300 2050 2200
Wire Wire Line
	2200 1150 2300 1150
Wire Wire Line
	2450 2200 2350 2200
Wire Wire Line
	2450 2200 2450 2300
Wire Wire Line
	2550 2200 2450 2200
Wire Bus Line
	2750 4150 2850 4150
Wire Bus Line
	2750 4650 2850 4650
Wire Bus Line
	2750 5150 2850 5150
Wire Bus Line
	2750 5650 2850 5650
Wire Bus Line
	2750 6150 2850 6150
Wire Bus Line
	2750 6650 2850 6650
Wire Bus Line
	2750 7150 2850 7150
Wire Wire Line
	3000 1050 2900 1050
Wire Wire Line
	3000 1050 3000 1150
Wire Wire Line
	3000 1450 3000 1350
Wire Wire Line
	3100 1050 3000 1050
Wire Wire Line
	3650 2350 3750 2350
Wire Wire Line
	3650 2550 3750 2550
Wire Wire Line
	3650 2650 3750 2650
Wire Wire Line
	3650 2850 3750 2850
Wire Wire Line
	3650 2950 3750 2950
Wire Wire Line
	3650 3050 3750 3050
Wire Wire Line
	3650 3150 3750 3150
Wire Wire Line
	3650 3350 3750 3350
Wire Wire Line
	3650 3450 3750 3450
Wire Wire Line
	3650 3650 3750 3650
Wire Wire Line
	3650 3750 3750 3750
Wire Wire Line
	3650 3850 3750 3850
Wire Wire Line
	3750 2450 3650 2450
Wire Wire Line
	3750 2750 3650 2750
Wire Wire Line
	3750 3250 3650 3250
Wire Wire Line
	3750 3550 3650 3550
Wire Wire Line
	4100 7050 4200 7050
Wire Wire Line
	4100 7550 4200 7550
Wire Wire Line
	4200 6700 4100 6700
Wire Wire Line
	4450 6050 4350 6050
Wire Wire Line
	4450 6250 4350 6250
Wire Wire Line
	4500 6700 4400 6700
Wire Wire Line
	4500 7550 4400 7550
Wire Wire Line
	4550 950  4550 850 
Wire Wire Line
	4550 5150 4550 5250
Wire Wire Line
	4550 6050 4450 6050
Wire Wire Line
	4650 850  4650 950 
Wire Wire Line
	4650 5150 4650 5250
Wire Wire Line
	4750 850  4750 950 
Wire Wire Line
	4750 6050 4850 6050
Wire Wire Line
	4850 850  4850 950 
Wire Wire Line
	4850 5150 4850 5250
Wire Wire Line
	4850 6050 4850 6150
Wire Wire Line
	4850 7300 4750 7300
Wire Wire Line
	4850 7300 4850 7400
Wire Wire Line
	4950 850  4950 950 
Wire Wire Line
	4950 5250 4950 5150
Wire Wire Line
	5050 850  5050 950 
Wire Wire Line
	5050 5250 5050 5150
Wire Wire Line
	5150 850  5150 950 
Wire Wire Line
	5150 5150 5150 5250
Wire Wire Line
	5250 850  5250 950 
Wire Wire Line
	5250 5150 5250 5250
Wire Wire Line
	5350 850  5350 950 
Wire Wire Line
	5350 5250 5350 5150
Wire Wire Line
	5450 850  5450 950 
Wire Wire Line
	5450 5150 5450 5250
Wire Wire Line
	5550 850  5550 950 
Wire Wire Line
	5550 5250 5550 5150
Wire Wire Line
	5650 850  5650 950 
Wire Wire Line
	5650 5250 5650 5150
Wire Wire Line
	5700 6450 5600 6450
Wire Wire Line
	5700 6800 5600 6800
Wire Wire Line
	5700 7150 5600 7150
Wire Wire Line
	5700 7500 5600 7500
Wire Wire Line
	5750 850  5750 950 
Wire Wire Line
	5750 5150 5750 5250
Wire Wire Line
	5850 850  5850 950 
Wire Wire Line
	5850 5150 5850 5250
Wire Wire Line
	5950 850  5950 950 
Wire Wire Line
	5950 5150 5950 5250
Wire Wire Line
	6050 950  6050 850 
Wire Wire Line
	6050 5150 6050 5250
Wire Wire Line
	6150 950  6150 850 
Wire Wire Line
	6300 5900 6400 5900
Wire Wire Line
	6400 6250 6300 6250
Wire Wire Line
	6400 6600 6300 6600
Wire Wire Line
	6400 6950 6300 6950
Wire Wire Line
	6400 7300 6300 7300
Wire Wire Line
	6400 7650 6300 7650
Wire Wire Line
	6600 5900 6700 5900
Wire Wire Line
	6600 6250 6700 6250
Wire Wire Line
	6600 6600 6700 6600
Wire Wire Line
	6600 6950 6700 6950
Wire Wire Line
	6600 7300 6700 7300
Wire Wire Line
	6600 7650 6700 7650
Wire Wire Line
	6950 2550 7050 2550
Wire Wire Line
	6950 2650 7050 2650
Wire Wire Line
	6950 2850 7050 2850
Wire Wire Line
	6950 2950 7050 2950
Wire Wire Line
	6950 3050 7050 3050
Wire Wire Line
	6950 3250 7050 3250
Wire Wire Line
	6950 3350 7050 3350
Wire Wire Line
	6950 3450 7050 3450
Wire Wire Line
	6950 3550 7050 3550
Wire Wire Line
	6950 3650 7050 3650
Wire Wire Line
	6950 3750 7050 3750
Wire Wire Line
	7050 2350 6950 2350
Wire Wire Line
	7050 2450 6950 2450
Wire Wire Line
	7050 2750 6950 2750
Wire Wire Line
	7050 3850 6950 3850
Wire Wire Line
	7100 5850 7200 5850
Wire Wire Line
	7200 6250 7100 6250
Wire Wire Line
	7400 5850 7500 5850
Wire Wire Line
	7400 6250 7500 6250
Wire Wire Line
	7400 6950 7300 6950
Wire Wire Line
	7500 5950 7500 5850
Wire Wire Line
	7500 6150 7500 6250
Wire Wire Line
	7800 5850 7900 5850
Wire Wire Line
	7800 5950 7800 5850
Wire Wire Line
	7800 6150 7800 6250
Wire Wire Line
	7800 6250 7900 6250
Wire Wire Line
	8200 6950 8300 6950
Wire Wire Line
	9000 900  9100 900 
Wire Wire Line
	9000 2400 9100 2400
Wire Wire Line
	9000 3900 9100 3900
Wire Wire Line
	9700 1400 9700 1300
Wire Wire Line
	9700 2900 9700 2800
Wire Wire Line
	9700 4400 9700 4300
Wire Wire Line
	9800 5400 9900 5400
Wire Wire Line
	10100 1300 10100 1400
Wire Wire Line
	10100 2800 10100 2900
Wire Wire Line
	10100 4300 10100 4400
Wire Wire Line
	10500 5700 10500 5600
Wire Wire Line
	10900 5600 10900 5700
Wire Wire Line
	1450 1050 1600 1050
Wire Wire Line
	6300 6600 6300 6450
Wire Wire Line
	1050 3700 1050 3900
Wire Wire Line
	1050 4300 1050 4500
Wire Wire Line
	1050 4900 1050 5100
Wire Wire Line
	1050 5500 1050 5700
Wire Wire Line
	1050 6100 1050 6300
Wire Wire Line
	1050 6700 1050 6900
Wire Wire Line
	1050 7300 1050 7500
Wire Bus Line
	1100 2100 1100 2300
Wire Wire Line
	1750 3050 1950 3050
Wire Bus Line
	2850 4150 2850 4350
Wire Bus Line
	2850 4650 2850 4850
Wire Bus Line
	2850 5150 2850 5350
Wire Bus Line
	2850 5650 2850 5850
Wire Bus Line
	2850 6150 2850 6350
Wire Bus Line
	2850 6650 2850 6850
Wire Bus Line
	2850 7150 2850 7350
Wire Wire Line
	4150 6050 3950 6050
Wire Wire Line
	4350 850  4550 850 
Wire Wire Line
	4450 6050 4450 6250
Wire Wire Line
	6300 6450 6300 6250
Wire Wire Line
	1950 1450 2200 1450
Wire Wire Line
	4450 7050 4450 7300
Wire Wire Line
	4750 7050 4750 7300
Wire Wire Line
	6050 6450 6300 6450
Wire Wire Line
	650  7300 650  7600
Wire Wire Line
	2200 1450 2200 1150
Wire Wire Line
	5100 7700 5100 8000
Wire Wire Line
	7500 5850 7800 5850
Wire Wire Line
	7500 6250 7800 6250
Wire Wire Line
	10500 1400 10500 1100
Wire Wire Line
	10500 2900 10500 2600
Wire Wire Line
	10500 4400 10500 4100
Wire Wire Line
	10900 1100 10900 1400
Wire Wire Line
	10900 2600 10900 2900
Wire Wire Line
	10900 4100 10900 4400
Wire Wire Line
	1550 2300 1200 2300
Wire Wire Line
	1550 2400 1200 2400
Wire Wire Line
	1600 1050 1950 1050
Wire Wire Line
	1950 1050 2300 1050
Wire Wire Line
	5100 6650 5100 7000
Wire Wire Line
	5100 7000 5100 7350
Wire Wire Line
	5100 7350 5100 7700
Wire Wire Line
	5700 7000 6050 7000
Wire Wire Line
	5700 7350 6050 7350
Wire Wire Line
	5700 7700 6050 7700
Wire Wire Line
	6050 6450 5700 6450
Wire Wire Line
	6050 6800 6050 6450
Wire Wire Line
	6050 6800 5700 6800
Wire Wire Line
	6050 7150 5700 7150
Wire Wire Line
	6050 7500 5700 7500
Wire Wire Line
	6300 6250 6300 5900
Wire Wire Line
	6300 6950 6300 6600
Wire Wire Line
	6300 7300 6300 6950
Wire Wire Line
	6300 7650 6300 7300
Wire Wire Line
	6700 5900 6700 6250
Wire Wire Line
	6700 6250 6700 6600
Wire Wire Line
	6700 6600 6700 6950
Wire Wire Line
	6700 6950 6700 7300
Wire Wire Line
	6700 7300 6700 7650
Wire Wire Line
	6700 7650 6700 8000
Wire Wire Line
	2950 4250 3350 4250
Wire Wire Line
	2950 4350 3350 4350
Wire Wire Line
	2950 4750 3350 4750
Wire Wire Line
	2950 4850 3350 4850
Wire Wire Line
	2950 5250 3350 5250
Wire Wire Line
	2950 5350 3350 5350
Wire Wire Line
	2950 5750 3350 5750
Wire Wire Line
	2950 5850 3350 5850
Wire Wire Line
	2950 6250 3350 6250
Wire Wire Line
	2950 6350 3350 6350
Wire Wire Line
	2950 6750 3350 6750
Wire Wire Line
	2950 6850 3350 6850
Wire Wire Line
	2950 7250 3350 7250
Wire Wire Line
	2950 7350 3350 7350
Wire Wire Line
	3350 4450 2950 4450
Wire Wire Line
	3350 4950 2950 4950
Wire Wire Line
	3350 5450 2950 5450
Wire Wire Line
	3350 5950 2950 5950
Wire Wire Line
	3350 6450 2950 6450
Wire Wire Line
	3350 6950 2950 6950
Wire Wire Line
	3350 7450 2950 7450
Wire Wire Line
	7100 6250 7100 5850
Wire Wire Line
	10100 1300 9700 1300
Wire Wire Line
	10100 2800 9700 2800
Wire Wire Line
	10100 4300 9700 4300
Wire Wire Line
	10900 1100 10500 1100
Wire Wire Line
	10900 2600 10500 2600
Wire Wire Line
	10900 4100 10500 4100
Wire Wire Line
	10900 5600 10500 5600
Wire Wire Line
	7700 900  8200 900 
Wire Wire Line
	7700 1000 8200 1000
Wire Wire Line
	7700 1200 8200 1200
Wire Wire Line
	7700 1300 8200 1300
Wire Wire Line
	7700 2400 8200 2400
Wire Wire Line
	7700 2500 8200 2500
Wire Wire Line
	7700 2700 8200 2700
Wire Wire Line
	7700 2800 8200 2800
Wire Wire Line
	7700 3900 8200 3900
Wire Wire Line
	7700 4000 8200 4000
Wire Wire Line
	7700 4200 8200 4200
Wire Wire Line
	7700 4300 8200 4300
Wire Wire Line
	8500 5400 9000 5400
Wire Wire Line
	8500 5500 9000 5500
Wire Wire Line
	650  4300 650  3700
Wire Wire Line
	650  4900 650  4300
Wire Wire Line
	650  5500 650  4900
Wire Wire Line
	650  6100 650  5500
Wire Wire Line
	650  6700 650  6100
Wire Wire Line
	650  7300 650  6700
Wire Wire Line
	5100 6650 5700 6650
Wire Wire Line
	5100 7000 5700 7000
Wire Wire Line
	5100 7350 5700 7350
Wire Wire Line
	5100 7700 5700 7700
Wire Notes Line
	6100 5600 6100 6300
Wire Wire Line
	9000 1300 9700 1300
Wire Wire Line
	9000 2800 9700 2800
Wire Wire Line
	9000 4300 9700 4300
Wire Wire Line
	9800 5600 10500 5600
Wire Notes Line
	550  2700 550  1900
Wire Notes Line
	2950 1900 2950 2700
Wire Notes Line
	6900 5600 6100 5600
Wire Notes Line
	8450 5050 7650 5050
Wire Wire Line
	1200 2200 2050 2200
Wire Notes Line
	7000 5550 7000 6450
Wire Notes Line
	8200 6450 8200 5550
Wire Notes Line
	550  1650 550  700 
Wire Notes Line
	3300 700  3300 1650
Wire Notes Line
	6100 6300 5150 6300
Wire Notes Line
	7000 6450 8200 6450
Wire Notes Line
	8200 5550 7000 5550
Wire Notes Line
	3700 7750 3700 6500
Wire Notes Line
	5050 6500 5050 7750
Wire Notes Line
	2250 4050 3600 4050
Wire Notes Line
	2250 7750 3600 7750
Wire Notes Line
	3700 6500 5050 6500
Wire Notes Line
	3700 7750 5050 7750
Wire Notes Line
	8450 6450 8450 5050
Wire Notes Line
	5150 6300 5150 7750
Wire Wire Line
	9000 1100 10500 1100
Wire Wire Line
	9000 2600 10500 2600
Wire Wire Line
	9000 4100 10500 4100
Wire Notes Line
	550  3350 2150 3350
Wire Notes Line
	2150 7750 550  7750
Wire Notes Line
	5150 7750 6900 7750
Wire Notes Line
	6900 5600 6900 7750
Wire Notes Line
	550  1900 2950 1900
Wire Notes Line
	2950 2700 550  2700
Wire Notes Line
	11150 6450 8450 6450
Wire Notes Line
	550  700  3300 700 
Wire Notes Line
	3300 1650 550  1650
Wire Notes Line
	7650 550  11150 550 
Wire Notes Line
	2250 4050 2250 7750
Wire Notes Line
	3600 4050 3600 7750
Wire Notes Line
	550  7750 550  3350
Wire Notes Line
	2150 3350 2150 7750
Wire Notes Line
	7650 5050 7650 550 
Wire Notes Line
	11150 550  11150 6450
Text Notes 550  650  0    50   ~ 0
3.3V Regulator
Text Notes 550  1850 0    50   ~ 0
Upstream VBUS Detection
Text Notes 550  3300 0    50   ~ 0
LED Indicators (Green / Amber)
Text Notes 2250 4000 0    50   ~ 0
Downstream Ports
Text Notes 3700 6450 0    50   ~ 0
Hub Configuration
Text Notes 6050 6250 2    50   ~ 0
Decoupling Capacitors
Text Notes 7000 5500 0    50   ~ 0
24 MHz Crystal
Text Notes 8400 5100 3    50   ~ 0
USB Port Power Controllers
Text Label 700  7600 0    50   ~ 0
3.3V
Text Label 750  3050 2    50   ~ 0
3.3V
Text Label 1150 3050 0    50   ~ 0
LOCAL_PWR
Text Label 1550 2200 2    50   ~ 0
UP.VBUS
Text Label 1550 2300 2    50   ~ 0
UP.D-
Text Label 1550 2400 2    50   ~ 0
UP.D+
Text Label 1750 3050 0    50   ~ 0
RBIAS
Text Label 1850 3700 0    50   ~ 0
LEDA1
Text Label 1850 3900 0    50   ~ 0
LEDB1
Text Label 1850 4300 0    50   ~ 0
LEDA2
Text Label 1850 4500 0    50   ~ 0
LEDB2
Text Label 1850 4900 0    50   ~ 0
LEDA3
Text Label 1850 5100 0    50   ~ 0
LEDB3
Text Label 1850 5500 0    50   ~ 0
LEDA4
Text Label 1850 5700 0    50   ~ 0
LEDB4
Text Label 1850 6100 0    50   ~ 0
LEDA5
Text Label 1850 6300 0    50   ~ 0
LEDB5
Text Label 1850 6700 0    50   ~ 0
LEDA6
Text Label 1850 6900 0    50   ~ 0
LEDB6
Text Label 1850 7300 0    50   ~ 0
LEDA7
Text Label 1850 7500 0    50   ~ 0
LEDB7
Text Label 2550 2200 0    50   ~ 0
VBUS_DET
Text Label 3100 1050 0    50   ~ 0
3.3V
Text Label 3350 4250 2    50   ~ 0
DN1.VBUS
Text Label 3350 4350 2    50   ~ 0
DN1.D-
Text Label 3350 4450 2    50   ~ 0
DN1.D+
Text Label 3350 4750 2    50   ~ 0
DN2.VBUS
Text Label 3350 4850 2    50   ~ 0
DN2.D-
Text Label 3350 4950 2    50   ~ 0
DN2.D+
Text Label 3350 5250 2    50   ~ 0
DN3.VBUS
Text Label 3350 5350 2    50   ~ 0
DN3.D-
Text Label 3350 5450 2    50   ~ 0
DN3.D+
Text Label 3350 5750 2    50   ~ 0
DN4.VBUS
Text Label 3350 5850 2    50   ~ 0
DN4.D-
Text Label 3350 5950 2    50   ~ 0
DN4.D+
Text Label 3350 6250 2    50   ~ 0
DN5.VBUS
Text Label 3350 6350 2    50   ~ 0
DN5.D-
Text Label 3350 6450 2    50   ~ 0
DN5.D+
Text Label 3350 6750 2    50   ~ 0
DN6.VBUS
Text Label 3350 6850 2    50   ~ 0
DN6.D-
Text Label 3350 6950 2    50   ~ 0
DN6.D+
Text Label 3350 7250 2    50   ~ 0
DN7.VBUS
Text Label 3350 7350 2    50   ~ 0
DN7.D-
Text Label 3350 7450 2    50   ~ 0
DN7.D+
Text Label 3650 2350 2    50   ~ 0
DN1.D-
Text Label 3650 2450 2    50   ~ 0
DN1.D+
Text Label 3650 2550 2    50   ~ 0
DN2.D-
Text Label 3650 2650 2    50   ~ 0
DN2.D+
Text Label 3650 2750 2    50   ~ 0
3.3V
Text Label 3650 2850 2    50   ~ 0
DN5.D-
Text Label 3650 2950 2    50   ~ 0
DN5.D+
Text Label 3650 3050 2    50   ~ 0
DN6.D-
Text Label 3650 3150 2    50   ~ 0
DN6.D+
Text Label 3650 3250 2    50   ~ 0
3.3V
Text Label 3650 3350 2    50   ~ 0
DN7.D-
Text Label 3650 3450 2    50   ~ 0
DN7.D+
Text Label 3650 3550 2    50   ~ 0
CFG_SEL2
Text Label 3650 3650 2    50   ~ 0
LEDB7
Text Label 3650 3750 2    50   ~ 0
LEDA7
Text Label 3650 3850 2    50   ~ 0
LEDB6
Text Label 3950 6050 2    50   ~ 0
3.3V
Text Label 4100 6700 2    50   ~ 0
CFG_SEL0
Text Label 4100 7050 2    50   ~ 0
CFG_SEL1
Text Label 4100 7550 2    50   ~ 0
CFG_SEL2
Text Label 4350 6250 2    50   ~ 0
RESET
Text Label 4500 6700 0    50   ~ 0
3.3V
Text Label 4500 7550 0    50   ~ 0
3.3V
Text Label 4550 5250 3    50   ~ 0
LEDA6
Text Label 4650 850  1    50   ~ 0
3.3V
Text Label 4650 5250 3    50   ~ 0
LEDB5
Text Label 4750 850  1    50   ~ 0
RBIAS
Text Label 4850 850  1    50   ~ 0
VDDAPLL
Text Label 4850 5250 3    50   ~ 0
PRTPWR4
Text Label 4950 850  1    50   ~ 0
XTAL1
Text Label 4950 5250 3    50   ~ 0
OCS4
Text Label 5050 850  1    50   ~ 0
XTAL2
Text Label 5050 5250 3    50   ~ 0
OCS3
Text Label 5150 850  1    50   ~ 0
UP.D+
Text Label 5150 5250 3    50   ~ 0
PRTPWR3
Text Label 5250 850  1    50   ~ 0
UP.D-
Text Label 5250 5250 3    50   ~ 0
VDD33REG
Text Label 5350 850  1    50   ~ 0
3.3V
Text Label 5350 5250 3    50   ~ 0
VDDCR
Text Label 5450 850  1    50   ~ 0
DN3.D+
Text Label 5450 5250 3    50   ~ 0
PRTPWR2
Text Label 5550 850  1    50   ~ 0
DN3.D-
Text Label 5550 5250 3    50   ~ 0
OCS2
Text Label 5600 6450 2    50   ~ 0
VDD33IO
Text Label 5600 6800 2    50   ~ 0
VDD33REG
Text Label 5600 7150 2    50   ~ 0
VDDCR
Text Label 5600 7500 2    50   ~ 0
VDDAPLL
Text Label 5650 850  1    50   ~ 0
DN4.D+
Text Label 5650 5250 3    50   ~ 0
OCS1
Text Label 5750 850  1    50   ~ 0
DN4.D-
Text Label 5750 5250 3    50   ~ 0
PRTPWR1
Text Label 5850 850  1    50   ~ 0
3.3V
Text Label 5850 5250 3    50   ~ 0
PRTPWR5
Text Label 5950 850  1    50   ~ 0
LEDA1
Text Label 5950 5250 3    50   ~ 0
LEDA5
Text Label 6050 850  1    50   ~ 0
LEDB1
Text Label 6050 5250 3    50   ~ 0
LEDB4
Text Label 6150 850  1    50   ~ 0
LEDA2
Text Label 6300 5900 2    50   ~ 0
3.3V
Text Label 7050 2350 0    50   ~ 0
LEDB2
Text Label 7050 2450 0    50   ~ 0
LEDA3
Text Label 7050 2550 0    50   ~ 0
VDD33IO
Text Label 7050 2650 0    50   ~ 0
LOCAL_PWR
Text Label 7050 2750 0    50   ~ 0
VBUS_DET
Text Label 7050 2850 0    50   ~ 0
RESET
Text Label 7050 2950 0    50   ~ 0
CFG_SEL1
Text Label 7050 3050 0    50   ~ 0
CFG_SEL0
Text Label 7050 3250 0    50   ~ 0
PRTPWR6
Text Label 7050 3350 0    50   ~ 0
OCS6
Text Label 7050 3450 0    50   ~ 0
OCS7
Text Label 7050 3550 0    50   ~ 0
PRTPWR7
Text Label 7050 3650 0    50   ~ 0
OCS5
Text Label 7050 3750 0    50   ~ 0
LEDB3
Text Label 7050 3850 0    50   ~ 0
LEDA4
Text Label 7300 6950 2    50   ~ 0
XTAL1
Text Label 7700 900  0    50   ~ 0
PRTPWR1
Text Label 7700 1000 0    50   ~ 0
OCS1
Text Label 7700 1200 0    50   ~ 0
PRTPWR2
Text Label 7700 1300 0    50   ~ 0
OCS2
Text Label 7700 2400 0    50   ~ 0
PRTPWR3
Text Label 7700 2500 0    50   ~ 0
OCS3
Text Label 7700 2700 0    50   ~ 0
PRTPWR4
Text Label 7700 2800 0    50   ~ 0
OCS4
Text Label 7700 3900 0    50   ~ 0
PRTPWR6
Text Label 7700 4000 0    50   ~ 0
OCS6
Text Label 7700 4200 0    50   ~ 0
PRTPWR7
Text Label 7700 4300 0    50   ~ 0
OCS7
Text Label 7900 5850 0    50   ~ 0
XTAL1
Text Label 7900 6250 0    50   ~ 0
XTAL2
Text Label 8300 6950 0    50   ~ 0
XTAL2
Text Label 8500 5400 0    50   ~ 0
PRTPWR5
Text Label 8500 5500 0    50   ~ 0
OCS5
Text Label 9500 1100 2    50   ~ 0
DN1.VBUS
Text Label 9500 1300 2    50   ~ 0
DN2.VBUS
Text Label 9500 2600 2    50   ~ 0
DN5.VBUS
Text Label 9500 2800 2    50   ~ 0
DN6.VBUS
Text Label 9500 4100 2    50   ~ 0
DN4.VBUS
Text Label 9500 4300 2    50   ~ 0
DN3.VBUS
Text Label 10300 5600 2    50   ~ 0
DN7.VBUS
Text GLabel 1450 1050 0    50   Input ~ 0
5V
Text GLabel 9100 900  2    50   Input ~ 0
5V
Text GLabel 9100 2400 2    50   Input ~ 0
5V
Text GLabel 9100 3900 2    50   Input ~ 0
5V
Text GLabel 9900 5400 2    50   Input ~ 0
5V
Text HLabel 1000 2100 0    50   Input ~ 0
UP{USB}
Text HLabel 2750 4150 0    50   Input ~ 0
DN1{USB}
Text HLabel 2750 4650 0    50   Input ~ 0
DN2{USB}
Text HLabel 2750 5150 0    50   Input ~ 0
DN3{USB}
Text HLabel 2750 5650 0    50   Input ~ 0
DN4{USB}
Text HLabel 2750 6150 0    50   Input ~ 0
DN5{USB}
Text HLabel 2750 6650 0    50   Input ~ 0
DN6{USB}
Text HLabel 2750 7150 0    50   Input ~ 0
DN7{USB}
$Comp
L power:GND #PWR01
U 1 1 5DF3C2B6
P 1600 1450
F 0 "#PWR01" H 1600 1200 50  0001 C CNN
F 1 "GND" H 1605 1277 50  0001 C CNN
F 2 "" H 1600 1450 50  0001 C CNN
F 3 "" H 1600 1450 50  0001 C CNN
	1    1600 1450
	1    0    0    -1  
$EndComp
$Comp
L power:GND #PWR02
U 1 1 5E058FBD
P 2050 2500
F 0 "#PWR02" H 2050 2250 50  0001 C CNN
F 1 "GND" H 2055 2327 50  0001 C CNN
F 2 "" H 2050 2500 50  0001 C CNN
F 3 "" H 2050 2500 50  0001 C CNN
	1    2050 2500
	1    0    0    -1  
$EndComp
$Comp
L power:GND #PWR0105
U 1 1 5E50759F
P 2300 3100
F 0 "#PWR0105" H 2300 2850 50  0001 C CNN
F 1 "GND" H 2305 2927 50  0001 C CNN
F 2 "" H 2300 3100 50  0001 C CNN
F 3 "" H 2300 3100 50  0001 C CNN
	1    2300 3100
	1    0    0    -1  
$EndComp
$Comp
L power:GND #PWR03
U 1 1 5E052415
P 2450 2500
F 0 "#PWR03" H 2450 2250 50  0001 C CNN
F 1 "GND" H 2455 2327 50  0001 C CNN
F 2 "" H 2450 2500 50  0001 C CNN
F 3 "" H 2450 2500 50  0001 C CNN
	1    2450 2500
	1    0    0    -1  
$EndComp
$Comp
L power:GND #PWR04
U 1 1 5DF3B4A5
P 2600 1450
F 0 "#PWR04" H 2600 1200 50  0001 C CNN
F 1 "GND" H 2605 1277 50  0001 C CNN
F 2 "" H 2600 1450 50  0001 C CNN
F 3 "" H 2600 1450 50  0001 C CNN
	1    2600 1450
	1    0    0    -1  
$EndComp
$Comp
L power:GND #PWR05
U 1 1 5E019FD9
P 3000 1450
F 0 "#PWR05" H 3000 1200 50  0001 C CNN
F 1 "GND" H 3005 1277 50  0001 C CNN
F 2 "" H 3000 1450 50  0001 C CNN
F 3 "" H 3000 1450 50  0001 C CNN
	1    3000 1450
	1    0    0    -1  
$EndComp
$Comp
L power:GND #PWR07
U 1 1 5DECDE5D
P 4350 900
F 0 "#PWR07" H 4350 650 50  0001 C CNN
F 1 "GND" H 4355 727 50  0000 C CNN
F 2 "" H 4350 900 50  0001 C CNN
F 3 "" H 4350 900 50  0001 C CNN
	1    4350 900 
	1    0    0    -1  
$EndComp
$Comp
L power:GND #PWR08
U 1 1 5E0040FB
P 4750 5150
F 0 "#PWR08" H 4750 4900 50  0001 C CNN
F 1 "GND" H 4755 4977 50  0001 C CNN
F 2 "" H 4750 5150 50  0001 C CNN
F 3 "" H 4750 5150 50  0001 C CNN
	1    4750 5150
	1    0    0    -1  
$EndComp
$Comp
L power:GND #PWR09
U 1 1 5DFE439F
P 4850 6150
F 0 "#PWR09" H 4850 5900 50  0001 C CNN
F 1 "GND" H 4855 5977 50  0001 C CNN
F 2 "" H 4850 6150 50  0001 C CNN
F 3 "" H 4850 6150 50  0001 C CNN
	1    4850 6150
	1    0    0    -1  
$EndComp
$Comp
L power:GND #PWR0106
U 1 1 5E4F0D91
P 4850 7400
F 0 "#PWR0106" H 4850 7150 50  0001 C CNN
F 1 "GND" H 4855 7227 50  0001 C CNN
F 2 "" H 4850 7400 50  0001 C CNN
F 3 "" H 4850 7400 50  0001 C CNN
	1    4850 7400
	1    0    0    -1  
$EndComp
$Comp
L power:GND #PWR0107
U 1 1 5E4F39C2
P 5100 8000
F 0 "#PWR0107" H 5100 7750 50  0001 C CNN
F 1 "GND" H 5105 7827 50  0001 C CNN
F 2 "" H 5100 8000 50  0001 C CNN
F 3 "" H 5100 8000 50  0001 C CNN
	1    5100 8000
	1    0    0    -1  
$EndComp
$Comp
L power:GND #PWR0108
U 1 1 5E4FC0E1
P 6700 8000
F 0 "#PWR0108" H 6700 7750 50  0001 C CNN
F 1 "GND" H 6705 7827 50  0001 C CNN
F 2 "" H 6700 8000 50  0001 C CNN
F 3 "" H 6700 8000 50  0001 C CNN
	1    6700 8000
	1    0    0    -1  
$EndComp
$Comp
L power:GND #PWR010
U 1 1 5E0803CE
P 7100 6250
F 0 "#PWR010" H 7100 6000 50  0001 C CNN
F 1 "GND" H 7105 6077 50  0001 C CNN
F 2 "" H 7100 6250 50  0001 C CNN
F 3 "" H 7100 6250 50  0001 C CNN
	1    7100 6250
	1    0    0    -1  
$EndComp
$Comp
L power:GND #PWR011
U 1 1 5DD936B1
P 8600 1700
F 0 "#PWR011" H 8600 1450 50  0001 C CNN
F 1 "GND" H 8605 1527 50  0000 C CNN
F 2 "" H 8600 1700 50  0001 C CNN
F 3 "" H 8600 1700 50  0001 C CNN
	1    8600 1700
	1    0    0    -1  
$EndComp
$Comp
L power:GND #PWR012
U 1 1 5DD9445D
P 8600 3200
F 0 "#PWR012" H 8600 2950 50  0001 C CNN
F 1 "GND" H 8605 3027 50  0000 C CNN
F 2 "" H 8600 3200 50  0001 C CNN
F 3 "" H 8600 3200 50  0001 C CNN
	1    8600 3200
	1    0    0    -1  
$EndComp
$Comp
L power:GND #PWR013
U 1 1 5DD95637
P 8600 4700
F 0 "#PWR013" H 8600 4450 50  0001 C CNN
F 1 "GND" H 8605 4527 50  0000 C CNN
F 2 "" H 8600 4700 50  0001 C CNN
F 3 "" H 8600 4700 50  0001 C CNN
	1    8600 4700
	1    0    0    -1  
$EndComp
$Comp
L power:GND #PWR014
U 1 1 5DD95F15
P 9400 6200
F 0 "#PWR014" H 9400 5950 50  0001 C CNN
F 1 "GND" H 9405 6027 50  0000 C CNN
F 2 "" H 9400 6200 50  0001 C CNN
F 3 "" H 9400 6200 50  0001 C CNN
	1    9400 6200
	1    0    0    -1  
$EndComp
$Comp
L power:GND #PWR015
U 1 1 5DDF4403
P 9700 1600
F 0 "#PWR015" H 9700 1350 50  0001 C CNN
F 1 "GND" H 9705 1427 50  0000 C CNN
F 2 "" H 9700 1600 50  0001 C CNN
F 3 "" H 9700 1600 50  0001 C CNN
	1    9700 1600
	1    0    0    -1  
$EndComp
$Comp
L power:GND #PWR016
U 1 1 5DE43D2C
P 9700 3100
F 0 "#PWR016" H 9700 2850 50  0001 C CNN
F 1 "GND" H 9705 2927 50  0000 C CNN
F 2 "" H 9700 3100 50  0001 C CNN
F 3 "" H 9700 3100 50  0001 C CNN
	1    9700 3100
	1    0    0    -1  
$EndComp
$Comp
L power:GND #PWR017
U 1 1 5DE4B1B6
P 9700 4600
F 0 "#PWR017" H 9700 4350 50  0001 C CNN
F 1 "GND" H 9705 4427 50  0000 C CNN
F 2 "" H 9700 4600 50  0001 C CNN
F 3 "" H 9700 4600 50  0001 C CNN
	1    9700 4600
	1    0    0    -1  
$EndComp
$Comp
L power:GND #PWR018
U 1 1 5DE04BE3
P 10100 1800
F 0 "#PWR018" H 10100 1550 50  0001 C CNN
F 1 "GND" H 10105 1627 50  0000 C CNN
F 2 "" H 10100 1800 50  0001 C CNN
F 3 "" H 10100 1800 50  0001 C CNN
	1    10100 1800
	1    0    0    -1  
$EndComp
$Comp
L power:GND #PWR019
U 1 1 5DE43D0F
P 10100 3300
F 0 "#PWR019" H 10100 3050 50  0001 C CNN
F 1 "GND" H 10105 3127 50  0000 C CNN
F 2 "" H 10100 3300 50  0001 C CNN
F 3 "" H 10100 3300 50  0001 C CNN
	1    10100 3300
	1    0    0    -1  
$EndComp
$Comp
L power:GND #PWR020
U 1 1 5DE4B199
P 10100 4800
F 0 "#PWR020" H 10100 4550 50  0001 C CNN
F 1 "GND" H 10105 4627 50  0000 C CNN
F 2 "" H 10100 4800 50  0001 C CNN
F 3 "" H 10100 4800 50  0001 C CNN
	1    10100 4800
	1    0    0    -1  
$EndComp
$Comp
L power:GND #PWR021
U 1 1 5DDF72DD
P 10500 1600
F 0 "#PWR021" H 10500 1350 50  0001 C CNN
F 1 "GND" H 10505 1427 50  0000 C CNN
F 2 "" H 10500 1600 50  0001 C CNN
F 3 "" H 10500 1600 50  0001 C CNN
	1    10500 1600
	1    0    0    -1  
$EndComp
$Comp
L power:GND #PWR022
U 1 1 5DE43D1E
P 10500 3100
F 0 "#PWR022" H 10500 2850 50  0001 C CNN
F 1 "GND" H 10505 2927 50  0000 C CNN
F 2 "" H 10500 3100 50  0001 C CNN
F 3 "" H 10500 3100 50  0001 C CNN
	1    10500 3100
	1    0    0    -1  
$EndComp
$Comp
L power:GND #PWR023
U 1 1 5DE4B1A8
P 10500 4600
F 0 "#PWR023" H 10500 4350 50  0001 C CNN
F 1 "GND" H 10505 4427 50  0000 C CNN
F 2 "" H 10500 4600 50  0001 C CNN
F 3 "" H 10500 4600 50  0001 C CNN
	1    10500 4600
	1    0    0    -1  
$EndComp
$Comp
L power:GND #PWR024
U 1 1 5DE4F178
P 10500 5900
F 0 "#PWR024" H 10500 5650 50  0001 C CNN
F 1 "GND" H 10505 5727 50  0000 C CNN
F 2 "" H 10500 5900 50  0001 C CNN
F 3 "" H 10500 5900 50  0001 C CNN
	1    10500 5900
	1    0    0    -1  
$EndComp
$Comp
L power:GND #PWR025
U 1 1 5DE2DC8C
P 10900 1800
F 0 "#PWR025" H 10900 1550 50  0001 C CNN
F 1 "GND" H 10905 1627 50  0000 C CNN
F 2 "" H 10900 1800 50  0001 C CNN
F 3 "" H 10900 1800 50  0001 C CNN
	1    10900 1800
	1    0    0    -1  
$EndComp
$Comp
L power:GND #PWR026
U 1 1 5DE43CC9
P 10900 3300
F 0 "#PWR026" H 10900 3050 50  0001 C CNN
F 1 "GND" H 10905 3127 50  0000 C CNN
F 2 "" H 10900 3300 50  0001 C CNN
F 3 "" H 10900 3300 50  0001 C CNN
	1    10900 3300
	1    0    0    -1  
$EndComp
$Comp
L power:GND #PWR027
U 1 1 5DE4B153
P 10900 4800
F 0 "#PWR027" H 10900 4550 50  0001 C CNN
F 1 "GND" H 10905 4627 50  0000 C CNN
F 2 "" H 10900 4800 50  0001 C CNN
F 3 "" H 10900 4800 50  0001 C CNN
	1    10900 4800
	1    0    0    -1  
$EndComp
$Comp
L power:GND #PWR028
U 1 1 5DE4F15B
P 10900 6100
F 0 "#PWR028" H 10900 5850 50  0001 C CNN
F 1 "GND" H 10905 5927 50  0000 C CNN
F 2 "" H 10900 6100 50  0001 C CNN
F 3 "" H 10900 6100 50  0001 C CNN
	1    10900 6100
	1    0    0    -1  
$EndComp
$Comp
L Device:R_Small_US R5
U 1 1 5DED5E0B
P 850 3700
F 0 "R5" V 645 3700 50  0000 C CNN
F 1 "330" V 736 3700 50  0000 C CNN
F 2 "Resistor_SMD:R_0603_1608Metric_Pad1.05x0.95mm_HandSolder" H 850 3700 50  0001 C CNN
F 3 "~" H 850 3700 50  0001 C CNN
	1    850  3700
	0    1    1    0   
$EndComp
$Comp
L Device:R_Small_US R6
U 1 1 5DF6C376
P 850 4300
F 0 "R6" V 645 4300 50  0000 C CNN
F 1 "330" V 736 4300 50  0000 C CNN
F 2 "Resistor_SMD:R_0603_1608Metric_Pad1.05x0.95mm_HandSolder" H 850 4300 50  0001 C CNN
F 3 "~" H 850 4300 50  0001 C CNN
	1    850  4300
	0    1    1    0   
$EndComp
$Comp
L Device:R_Small_US R7
U 1 1 5DF723C4
P 850 4900
F 0 "R7" V 645 4900 50  0000 C CNN
F 1 "330" V 736 4900 50  0000 C CNN
F 2 "Resistor_SMD:R_0603_1608Metric_Pad1.05x0.95mm_HandSolder" H 850 4900 50  0001 C CNN
F 3 "~" H 850 4900 50  0001 C CNN
	1    850  4900
	0    1    1    0   
$EndComp
$Comp
L Device:R_Small_US R8
U 1 1 5DF74750
P 850 5500
F 0 "R8" V 645 5500 50  0000 C CNN
F 1 "330" V 736 5500 50  0000 C CNN
F 2 "Resistor_SMD:R_0603_1608Metric_Pad1.05x0.95mm_HandSolder" H 850 5500 50  0001 C CNN
F 3 "~" H 850 5500 50  0001 C CNN
	1    850  5500
	0    1    1    0   
$EndComp
$Comp
L Device:R_Small_US R9
U 1 1 5DF76EDA
P 850 6100
F 0 "R9" V 645 6100 50  0000 C CNN
F 1 "330" V 736 6100 50  0000 C CNN
F 2 "Resistor_SMD:R_0603_1608Metric_Pad1.05x0.95mm_HandSolder" H 850 6100 50  0001 C CNN
F 3 "~" H 850 6100 50  0001 C CNN
	1    850  6100
	0    1    1    0   
$EndComp
$Comp
L Device:R_Small_US R10
U 1 1 5DF79206
P 850 6700
F 0 "R10" V 645 6700 50  0000 C CNN
F 1 "330" V 736 6700 50  0000 C CNN
F 2 "Resistor_SMD:R_0603_1608Metric_Pad1.05x0.95mm_HandSolder" H 850 6700 50  0001 C CNN
F 3 "~" H 850 6700 50  0001 C CNN
	1    850  6700
	0    1    1    0   
$EndComp
$Comp
L Device:R_Small_US R11
U 1 1 5DF7B5C3
P 850 7300
F 0 "R11" V 645 7300 50  0000 C CNN
F 1 "330" V 736 7300 50  0000 C CNN
F 2 "Resistor_SMD:R_0603_1608Metric_Pad1.05x0.95mm_HandSolder" H 850 7300 50  0001 C CNN
F 3 "~" H 850 7300 50  0001 C CNN
	1    850  7300
	0    1    1    0   
$EndComp
$Comp
L Device:R_Small_US R12
U 1 1 5DFD0A97
P 950 3050
F 0 "R12" V 745 3050 50  0000 C CNN
F 1 "10k" V 836 3050 50  0000 C CNN
F 2 "Resistor_SMD:R_0603_1608Metric_Pad1.05x0.95mm_HandSolder" H 950 3050 50  0001 C CNN
F 3 "~" H 950 3050 50  0001 C CNN
	1    950  3050
	0    1    1    0   
$EndComp
$Comp
L Device:R_Small_US R13
U 1 1 5DF36205
P 1950 1250
F 0 "R13" H 1882 1204 50  0000 R CNN
F 1 "1M" H 1882 1295 50  0000 R CNN
F 2 "Resistor_SMD:R_0603_1608Metric_Pad1.05x0.95mm_HandSolder" H 1950 1250 50  0001 C CNN
F 3 "~" H 1950 1250 50  0001 C CNN
	1    1950 1250
	-1   0    0    1   
$EndComp
$Comp
L Device:R_Small_US R15
U 1 1 5E04FFA7
P 2250 2200
F 0 "R15" V 2045 2200 50  0000 C CNN
F 1 "100k" V 2136 2200 50  0000 C CNN
F 2 "Resistor_SMD:R_0603_1608Metric_Pad1.05x0.95mm_HandSolder" H 2250 2200 50  0001 C CNN
F 3 "~" H 2250 2200 50  0001 C CNN
	1    2250 2200
	0    1    1    0   
$EndComp
$Comp
L Device:R_Small_US R16
U 1 1 5E04CA4C
P 2450 2400
F 0 "R16" H 2382 2354 50  0000 R CNN
F 1 "100k" H 2382 2445 50  0000 R CNN
F 2 "Resistor_SMD:R_0603_1608Metric_Pad1.05x0.95mm_HandSolder" H 2450 2400 50  0001 C CNN
F 3 "~" H 2450 2400 50  0001 C CNN
	1    2450 2400
	-1   0    0    1   
$EndComp
$Comp
L Device:R_Small_US R17
U 1 1 5E54BF63
P 4250 6050
F 0 "R17" V 4000 6050 50  0000 C CNN
F 1 "10k" V 4100 6050 50  0000 C CNN
F 2 "Resistor_SMD:R_0603_1608Metric_Pad1.05x0.95mm_HandSolder" H 4250 6050 50  0001 C CNN
F 3 "~" H 4250 6050 50  0001 C CNN
	1    4250 6050
	0    1    1    0   
$EndComp
$Comp
L Device:R_Small_US R18
U 1 1 5DFA009F
P 4300 6700
F 0 "R18" V 4200 6700 50  0000 C CNN
F 1 "10k" V 4400 6700 50  0000 C CNN
F 2 "Resistor_SMD:R_0603_1608Metric_Pad1.05x0.95mm_HandSolder" H 4300 6700 50  0001 C CNN
F 3 "~" H 4300 6700 50  0001 C CNN
	1    4300 6700
	0    1    1    0   
$EndComp
$Comp
L Device:R_Small_US R19
U 1 1 5DFA75F9
P 4300 7050
F 0 "R19" V 4200 7050 50  0000 C CNN
F 1 "330" V 4400 7050 50  0000 C CNN
F 2 "Resistor_SMD:R_0603_1608Metric_Pad1.05x0.95mm_HandSolder" H 4300 7050 50  0001 C CNN
F 3 "~" H 4300 7050 50  0001 C CNN
	1    4300 7050
	0    1    1    0   
$EndComp
$Comp
L Device:R_Small_US R20
U 1 1 5DFA29A2
P 4300 7550
F 0 "R20" V 4200 7550 50  0000 C CNN
F 1 "10k" V 4400 7550 50  0000 C CNN
F 2 "Resistor_SMD:R_0603_1608Metric_Pad1.05x0.95mm_HandSolder" H 4300 7550 50  0001 C CNN
F 3 "~" H 4300 7550 50  0001 C CNN
	1    4300 7550
	0    1    1    0   
$EndComp
$Comp
L Device:R_Small_US R21
U 1 1 5DFA18B6
P 4600 7300
F 0 "R21" V 4500 7300 50  0000 C CNN
F 1 "100k" V 4700 7300 50  0000 C CNN
F 2 "Resistor_SMD:R_0603_1608Metric_Pad1.05x0.95mm_HandSolder" H 4600 7300 50  0001 C CNN
F 3 "~" H 4600 7300 50  0001 C CNN
	1    4600 7300
	0    1    1    0   
$EndComp
$Comp
L Device:R_Small_US R22
U 1 1 5E06E162
P 7500 6050
F 0 "R22" H 7568 6096 50  0000 L CNN
F 1 "1M" H 7568 6005 50  0000 L CNN
F 2 "Resistor_SMD:R_0603_1608Metric_Pad1.05x0.95mm_HandSolder" H 7500 6050 50  0001 C CNN
F 3 "~" H 7500 6050 50  0001 C CNN
	1    7500 6050
	1    0    0    -1  
$EndComp
$Comp
L Device:R_Small_US R23
U 1 1 5DE0320C
P 10100 1500
F 0 "R23" H 10032 1454 50  0000 R CNN
F 1 "330" H 10032 1545 50  0000 R CNN
F 2 "Resistor_SMD:R_0603_1608Metric_Pad1.05x0.95mm_HandSolder" H 10100 1500 50  0001 C CNN
F 3 "~" H 10100 1500 50  0001 C CNN
	1    10100 1500
	-1   0    0    1   
$EndComp
$Comp
L Device:R_Small_US R24
U 1 1 5DE43D5C
P 10100 3000
F 0 "R24" H 10032 2954 50  0000 R CNN
F 1 "330" H 10032 3045 50  0000 R CNN
F 2 "Resistor_SMD:R_0603_1608Metric_Pad1.05x0.95mm_HandSolder" H 10100 3000 50  0001 C CNN
F 3 "~" H 10100 3000 50  0001 C CNN
	1    10100 3000
	-1   0    0    1   
$EndComp
$Comp
L Device:R_Small_US R25
U 1 1 5DE4B1E6
P 10100 4500
F 0 "R25" H 10032 4454 50  0000 R CNN
F 1 "330" H 10032 4545 50  0000 R CNN
F 2 "Resistor_SMD:R_0603_1608Metric_Pad1.05x0.95mm_HandSolder" H 10100 4500 50  0001 C CNN
F 3 "~" H 10100 4500 50  0001 C CNN
	1    10100 4500
	-1   0    0    1   
$EndComp
$Comp
L Device:R_Small_US R26
U 1 1 5DE2DCAB
P 10900 1500
F 0 "R26" H 10832 1454 50  0000 R CNN
F 1 "330" H 10832 1545 50  0000 R CNN
F 2 "Resistor_SMD:R_0603_1608Metric_Pad1.05x0.95mm_HandSolder" H 10900 1500 50  0001 C CNN
F 3 "~" H 10900 1500 50  0001 C CNN
	1    10900 1500
	-1   0    0    1   
$EndComp
$Comp
L Device:R_Small_US R27
U 1 1 5DE43CD8
P 10900 3000
F 0 "R27" H 10832 2954 50  0000 R CNN
F 1 "330" H 10832 3045 50  0000 R CNN
F 2 "Resistor_SMD:R_0603_1608Metric_Pad1.05x0.95mm_HandSolder" H 10900 3000 50  0001 C CNN
F 3 "~" H 10900 3000 50  0001 C CNN
	1    10900 3000
	-1   0    0    1   
$EndComp
$Comp
L Device:R_Small_US R28
U 1 1 5DE4B162
P 10900 4500
F 0 "R28" H 10832 4454 50  0000 R CNN
F 1 "330" H 10832 4545 50  0000 R CNN
F 2 "Resistor_SMD:R_0603_1608Metric_Pad1.05x0.95mm_HandSolder" H 10900 4500 50  0001 C CNN
F 3 "~" H 10900 4500 50  0001 C CNN
	1    10900 4500
	-1   0    0    1   
$EndComp
$Comp
L Device:R_Small_US R29
U 1 1 5DE4F1A8
P 10900 5800
F 0 "R29" H 10832 5754 50  0000 R CNN
F 1 "330" H 10832 5845 50  0000 R CNN
F 2 "Resistor_SMD:R_0603_1608Metric_Pad1.05x0.95mm_HandSolder" H 10900 5800 50  0001 C CNN
F 3 "~" H 10900 5800 50  0001 C CNN
	1    10900 5800
	-1   0    0    1   
$EndComp
$Comp
L Device:LED_Small D9
U 1 1 5DFAE70C
P 4600 7050
F 0 "D9" H 4600 6845 50  0000 C CNN
F 1 "RED" H 4600 6936 50  0000 C CNN
F 2 "LED_SMD:LED_0603_1608Metric_Pad1.05x0.95mm_HandSolder" V 4600 7050 50  0001 C CNN
F 3 "~" V 4600 7050 50  0001 C CNN
	1    4600 7050
	-1   0    0    1   
$EndComp
$Comp
L Device:LED_Small D10
U 1 1 5DE01729
P 10100 1700
F 0 "D10" V 10146 1632 50  0000 R CNN
F 1 "RED" V 10055 1632 50  0000 R CNN
F 2 "LED_SMD:LED_0603_1608Metric_Pad1.05x0.95mm_HandSolder" V 10100 1700 50  0001 C CNN
F 3 "~" V 10100 1700 50  0001 C CNN
	1    10100 1700
	0    -1   -1   0   
$EndComp
$Comp
L Device:LED_Small D11
U 1 1 5DE43D4B
P 10100 3200
F 0 "D11" V 10146 3132 50  0000 R CNN
F 1 "RED" V 10055 3132 50  0000 R CNN
F 2 "LED_SMD:LED_0603_1608Metric_Pad1.05x0.95mm_HandSolder" V 10100 3200 50  0001 C CNN
F 3 "~" V 10100 3200 50  0001 C CNN
	1    10100 3200
	0    -1   -1   0   
$EndComp
$Comp
L Device:LED_Small D12
U 1 1 5DE4B1D5
P 10100 4700
F 0 "D12" V 10146 4632 50  0000 R CNN
F 1 "RED" V 10055 4632 50  0000 R CNN
F 2 "LED_SMD:LED_0603_1608Metric_Pad1.05x0.95mm_HandSolder" V 10100 4700 50  0001 C CNN
F 3 "~" V 10100 4700 50  0001 C CNN
	1    10100 4700
	0    -1   -1   0   
$EndComp
$Comp
L Device:LED_Small D13
U 1 1 5DE2DC9A
P 10900 1700
F 0 "D13" V 10946 1632 50  0000 R CNN
F 1 "RED" V 10855 1632 50  0000 R CNN
F 2 "LED_SMD:LED_0603_1608Metric_Pad1.05x0.95mm_HandSolder" V 10900 1700 50  0001 C CNN
F 3 "~" V 10900 1700 50  0001 C CNN
	1    10900 1700
	0    -1   -1   0   
$EndComp
$Comp
L Device:LED_Small D14
U 1 1 5DE43CFE
P 10900 3200
F 0 "D14" V 10946 3132 50  0000 R CNN
F 1 "RED" V 10855 3132 50  0000 R CNN
F 2 "LED_SMD:LED_0603_1608Metric_Pad1.05x0.95mm_HandSolder" V 10900 3200 50  0001 C CNN
F 3 "~" V 10900 3200 50  0001 C CNN
	1    10900 3200
	0    -1   -1   0   
$EndComp
$Comp
L Device:LED_Small D15
U 1 1 5DE4B188
P 10900 4700
F 0 "D15" V 10946 4632 50  0000 R CNN
F 1 "RED" V 10855 4632 50  0000 R CNN
F 2 "LED_SMD:LED_0603_1608Metric_Pad1.05x0.95mm_HandSolder" V 10900 4700 50  0001 C CNN
F 3 "~" V 10900 4700 50  0001 C CNN
	1    10900 4700
	0    -1   -1   0   
$EndComp
$Comp
L Device:LED_Small D16
U 1 1 5DE4F197
P 10900 6000
F 0 "D16" V 10946 5932 50  0000 R CNN
F 1 "RED" V 10855 5932 50  0000 R CNN
F 2 "LED_SMD:LED_0603_1608Metric_Pad1.05x0.95mm_HandSolder" V 10900 6000 50  0001 C CNN
F 3 "~" V 10900 6000 50  0001 C CNN
	1    10900 6000
	0    -1   -1   0   
$EndComp
$Comp
L Device:R_US R14
U 1 1 5DCA96BF
P 2100 3050
F 0 "R14" V 1895 3050 50  0000 C CNN
F 1 "12k" V 1986 3050 50  0000 C CNN
F 2 "Resistor_SMD:R_0603_1608Metric_Pad1.05x0.95mm_HandSolder" V 2140 3040 50  0001 C CNN
F 3 "~" H 2100 3050 50  0001 C CNN
F 4 "1%" V 2200 3050 50  0000 C CNN "Tolerance"
	1    2100 3050
	0    1    1    0   
$EndComp
$Comp
L Device:CP1_Small C24
U 1 1 5DDF43F2
P 9700 1500
F 0 "C24" H 9791 1546 50  0000 L CNN
F 1 "150u" H 9791 1455 50  0000 L CNN
F 2 "Capacitor_SMD:CP_Elec_6.3x5.4_Nichicon" H 9700 1500 50  0001 C CNN
F 3 "~" H 9700 1500 50  0001 C CNN
F 4 "6.3V" H 9800 1350 50  0000 L CNN "Voltage"
	1    9700 1500
	1    0    0    -1  
$EndComp
$Comp
L Device:CP1_Small C25
U 1 1 5DEB7680
P 9700 3000
F 0 "C25" H 9791 3046 50  0000 L CNN
F 1 "150u" H 9791 2955 50  0000 L CNN
F 2 "Capacitor_SMD:CP_Elec_6.3x5.4_Nichicon" H 9700 3000 50  0001 C CNN
F 3 "~" H 9700 3000 50  0001 C CNN
F 4 "6.3V" H 9800 2850 50  0000 L CNN "Voltage"
	1    9700 3000
	1    0    0    -1  
$EndComp
$Comp
L Device:CP1_Small C26
U 1 1 5DEBB9F4
P 9700 4500
F 0 "C26" H 9791 4546 50  0000 L CNN
F 1 "150u" H 9791 4455 50  0000 L CNN
F 2 "Capacitor_SMD:CP_Elec_6.3x5.4_Nichicon" H 9700 4500 50  0001 C CNN
F 3 "~" H 9700 4500 50  0001 C CNN
F 4 "6.3V" H 9800 4350 50  0000 L CNN "Voltage"
	1    9700 4500
	1    0    0    -1  
$EndComp
$Comp
L Device:CP1_Small C27
U 1 1 5E5D7D14
P 10500 1500
F 0 "C27" H 10591 1546 50  0000 L CNN
F 1 "150u" H 10591 1455 50  0000 L CNN
F 2 "Capacitor_SMD:CP_Elec_6.3x5.4_Nichicon" H 10500 1500 50  0001 C CNN
F 3 "~" H 10500 1500 50  0001 C CNN
F 4 "6.3V" H 10600 1350 50  0000 L CNN "Voltage"
	1    10500 1500
	1    0    0    -1  
$EndComp
$Comp
L Device:CP1_Small C28
U 1 1 5DEB878E
P 10500 3000
F 0 "C28" H 10591 3046 50  0000 L CNN
F 1 "150u" H 10591 2955 50  0000 L CNN
F 2 "Capacitor_SMD:CP_Elec_6.3x5.4_Nichicon" H 10500 3000 50  0001 C CNN
F 3 "~" H 10500 3000 50  0001 C CNN
F 4 "6.3V" H 10600 2850 50  0000 L CNN "Voltage"
	1    10500 3000
	1    0    0    -1  
$EndComp
$Comp
L Device:CP1_Small C29
U 1 1 5DEBCB03
P 10500 4500
F 0 "C29" H 10591 4546 50  0000 L CNN
F 1 "150u" H 10591 4455 50  0000 L CNN
F 2 "Capacitor_SMD:CP_Elec_6.3x5.4_Nichicon" H 10500 4500 50  0001 C CNN
F 3 "~" H 10500 4500 50  0001 C CNN
F 4 "6.3V" H 10600 4350 50  0000 L CNN "Voltage"
	1    10500 4500
	1    0    0    -1  
$EndComp
$Comp
L Device:CP1_Small C30
U 1 1 5DEBE27A
P 10500 5800
F 0 "C30" H 10591 5846 50  0000 L CNN
F 1 "150u" H 10591 5755 50  0000 L CNN
F 2 "Capacitor_SMD:CP_Elec_6.3x5.4_Nichicon" H 10500 5800 50  0001 C CNN
F 3 "~" H 10500 5800 50  0001 C CNN
F 4 "6.3V" H 10600 5650 50  0000 L CNN "Voltage"
	1    10500 5800
	1    0    0    -1  
$EndComp
$Comp
L Device:C_Small C5
U 1 1 5DF30249
P 1600 1250
F 0 "C5" H 1692 1341 50  0000 L CNN
F 1 "1u" H 1692 1250 50  0000 L CNN
F 2 "Capacitor_SMD:C_0603_1608Metric_Pad1.05x0.95mm_HandSolder" H 1600 1250 50  0001 C CNN
F 3 "~" H 1600 1250 50  0001 C CNN
F 4 "X5R" H 1692 1159 50  0000 L CNN "Code"
	1    1600 1250
	1    0    0    -1  
$EndComp
$Comp
L Device:C_Small C6
U 1 1 5E0585EB
P 2050 2400
F 0 "C6" H 2142 2446 50  0000 L CNN
F 1 "2.2u" H 2142 2355 50  0000 L CNN
F 2 "Capacitor_SMD:C_0603_1608Metric_Pad1.05x0.95mm_HandSolder" H 2050 2400 50  0001 C CNN
F 3 "~" H 2050 2400 50  0001 C CNN
	1    2050 2400
	1    0    0    -1  
$EndComp
$Comp
L Device:C_Small C7
U 1 1 5E01646F
P 3000 1250
F 0 "C7" H 3092 1341 50  0000 L CNN
F 1 "1u" H 3092 1250 50  0000 L CNN
F 2 "Capacitor_SMD:C_0603_1608Metric_Pad1.05x0.95mm_HandSolder" H 3000 1250 50  0001 C CNN
F 3 "~" H 3000 1250 50  0001 C CNN
F 4 "X5R" H 3092 1159 50  0000 L CNN "Code"
	1    3000 1250
	1    0    0    -1  
$EndComp
$Comp
L Device:C_Small C8
U 1 1 5E54C384
P 4650 6050
F 0 "C8" V 4400 6050 50  0000 C CNN
F 1 "1u" V 4500 6050 50  0000 C CNN
F 2 "Capacitor_SMD:C_0603_1608Metric_Pad1.05x0.95mm_HandSolder" H 4650 6050 50  0001 C CNN
F 3 "~" H 4650 6050 50  0001 C CNN
F 4 "X5R" V 4800 6050 50  0000 C CNN "Rating"
	1    4650 6050
	0    1    1    0   
$EndComp
$Comp
L Device:C_Small C9
U 1 1 5E474C7E
P 5700 6550
F 0 "C9" H 5792 6596 50  0000 L CNN
F 1 "0.1u" H 5792 6505 50  0000 L CNN
F 2 "Capacitor_SMD:C_0603_1608Metric_Pad1.05x0.95mm_HandSolder" H 5700 6550 50  0001 C CNN
F 3 "~" H 5700 6550 50  0001 C CNN
	1    5700 6550
	1    0    0    -1  
$EndComp
$Comp
L Device:C_Small C10
U 1 1 5E464BAD
P 5700 6900
F 0 "C10" H 5792 6946 50  0000 L CNN
F 1 "0.1u" H 5792 6855 50  0000 L CNN
F 2 "Capacitor_SMD:C_0603_1608Metric_Pad1.05x0.95mm_HandSolder" H 5700 6900 50  0001 C CNN
F 3 "~" H 5700 6900 50  0001 C CNN
	1    5700 6900
	1    0    0    -1  
$EndComp
$Comp
L Device:C_Small C11
U 1 1 5E088451
P 5700 7250
F 0 "C11" H 5792 7296 50  0000 L CNN
F 1 "0.1u" H 5792 7205 50  0000 L CNN
F 2 "Capacitor_SMD:C_0603_1608Metric_Pad1.05x0.95mm_HandSolder" H 5700 7250 50  0001 C CNN
F 3 "~" H 5700 7250 50  0001 C CNN
	1    5700 7250
	1    0    0    -1  
$EndComp
$Comp
L Device:C_Small C12
U 1 1 5E091379
P 5700 7600
F 0 "C12" H 5792 7646 50  0000 L CNN
F 1 "0.1u" H 5792 7555 50  0000 L CNN
F 2 "Capacitor_SMD:C_0603_1608Metric_Pad1.05x0.95mm_HandSolder" H 5700 7600 50  0001 C CNN
F 3 "~" H 5700 7600 50  0001 C CNN
	1    5700 7600
	1    0    0    -1  
$EndComp
$Comp
L Device:C_Small C13
U 1 1 5E464B9C
P 6050 6900
F 0 "C13" H 6142 6946 50  0000 L CNN
F 1 "1u" H 6142 6855 50  0000 L CNN
F 2 "Capacitor_SMD:C_0603_1608Metric_Pad1.05x0.95mm_HandSolder" H 6050 6900 50  0001 C CNN
F 3 "~" H 6050 6900 50  0001 C CNN
	1    6050 6900
	1    0    0    -1  
$EndComp
$Comp
L Device:C_Small C14
U 1 1 5E5D7D15
P 6050 7250
F 0 "C14" H 6142 7296 50  0000 L CNN
F 1 "1u" H 6142 7205 50  0000 L CNN
F 2 "Capacitor_SMD:C_0603_1608Metric_Pad1.05x0.95mm_HandSolder" H 6050 7250 50  0001 C CNN
F 3 "~" H 6050 7250 50  0001 C CNN
	1    6050 7250
	1    0    0    -1  
$EndComp
$Comp
L Device:C_Small C15
U 1 1 5E091368
P 6050 7600
F 0 "C15" H 6142 7646 50  0000 L CNN
F 1 "1u" H 6142 7555 50  0000 L CNN
F 2 "Capacitor_SMD:C_0603_1608Metric_Pad1.05x0.95mm_HandSolder" H 6050 7600 50  0001 C CNN
F 3 "~" H 6050 7600 50  0001 C CNN
	1    6050 7600
	1    0    0    -1  
$EndComp
$Comp
L Device:C_Small C16
U 1 1 5E490774
P 6500 5900
F 0 "C16" V 6271 5900 50  0000 C CNN
F 1 "1u" V 6362 5900 50  0000 C CNN
F 2 "Capacitor_SMD:C_0603_1608Metric_Pad1.05x0.95mm_HandSolder" H 6500 5900 50  0001 C CNN
F 3 "~" H 6500 5900 50  0001 C CNN
	1    6500 5900
	0    1    1    0   
$EndComp
$Comp
L Device:C_Small C17
U 1 1 5E484272
P 6500 6250
F 0 "C17" V 6271 6250 50  0000 C CNN
F 1 "0.1u" V 6362 6250 50  0000 C CNN
F 2 "Capacitor_SMD:C_0603_1608Metric_Pad1.05x0.95mm_HandSolder" H 6500 6250 50  0001 C CNN
F 3 "~" H 6500 6250 50  0001 C CNN
	1    6500 6250
	0    1    1    0   
$EndComp
$Comp
L Device:C_Small C18
U 1 1 5E5D7D16
P 6500 6600
F 0 "C18" V 6271 6600 50  0000 C CNN
F 1 "0.1u" V 6362 6600 50  0000 C CNN
F 2 "Capacitor_SMD:C_0603_1608Metric_Pad1.05x0.95mm_HandSolder" H 6500 6600 50  0001 C CNN
F 3 "~" H 6500 6600 50  0001 C CNN
	1    6500 6600
	0    1    1    0   
$EndComp
$Comp
L Device:C_Small C19
U 1 1 5E48607C
P 6500 6950
F 0 "C19" V 6271 6950 50  0000 C CNN
F 1 "0.1u" V 6362 6950 50  0000 C CNN
F 2 "Capacitor_SMD:C_0603_1608Metric_Pad1.05x0.95mm_HandSolder" H 6500 6950 50  0001 C CNN
F 3 "~" H 6500 6950 50  0001 C CNN
	1    6500 6950
	0    1    1    0   
$EndComp
$Comp
L Device:C_Small C20
U 1 1 5E48732A
P 6500 7300
F 0 "C20" V 6271 7300 50  0000 C CNN
F 1 "0.1u" V 6362 7300 50  0000 C CNN
F 2 "Capacitor_SMD:C_0603_1608Metric_Pad1.05x0.95mm_HandSolder" H 6500 7300 50  0001 C CNN
F 3 "~" H 6500 7300 50  0001 C CNN
	1    6500 7300
	0    1    1    0   
$EndComp
$Comp
L Device:C_Small C21
U 1 1 5E48868C
P 6500 7650
F 0 "C21" V 6271 7650 50  0000 C CNN
F 1 "0.1u" V 6362 7650 50  0000 C CNN
F 2 "Capacitor_SMD:C_0603_1608Metric_Pad1.05x0.95mm_HandSolder" H 6500 7650 50  0001 C CNN
F 3 "~" H 6500 7650 50  0001 C CNN
	1    6500 7650
	0    1    1    0   
$EndComp
$Comp
L Device:C_Small C22
U 1 1 5E074542
P 7300 5850
F 0 "C22" V 7071 5850 50  0000 C CNN
F 1 "33p" V 7162 5850 50  0000 C CNN
F 2 "Capacitor_SMD:C_0603_1608Metric_Pad1.05x0.95mm_HandSolder" H 7300 5850 50  0001 C CNN
F 3 "~" H 7300 5850 50  0001 C CNN
	1    7300 5850
	0    1    1    0   
$EndComp
$Comp
L Device:C_Small C23
U 1 1 5E075213
P 7300 6250
F 0 "C23" V 7071 6250 50  0000 C CNN
F 1 "33p" V 7162 6250 50  0000 C CNN
F 2 "Capacitor_SMD:C_0603_1608Metric_Pad1.05x0.95mm_HandSolder" H 7300 6250 50  0001 C CNN
F 3 "~" H 7300 6250 50  0001 C CNN
	1    7300 6250
	0    1    1    0   
$EndComp
$Comp
L ABL-24.000MHZ-B2:ABL-24.000MHZ-B2 Y1
U 1 1 5DDB7F5B
P 7400 6950
F 0 "Y1" H 7800 7215 50  0000 C CNN
F 1 "ABL-24.000MHZ-B2" H 7800 7124 50  0000 C CNN
F 2 "ABL-24.000MHZ-B2:ABL110592MHZB2" H 8050 7050 50  0001 L CNN
F 3 "https://abracon.com/Resonators/ABL.pdf" H 8050 6950 50  0001 L CNN
F 4 "ABRACON - ABL-24.000MHZ-B2 - CRYSTAL, 24M, 18PF CL, HC49/4H" H 8050 6850 50  0001 L CNN "Description"
F 5 "3.5" H 8050 6750 50  0001 L CNN "Height"
F 6 "ABRACON" H 8050 6650 50  0001 L CNN "Manufacturer_Name"
F 7 "ABL-24.000MHZ-B2" H 8050 6550 50  0001 L CNN "Manufacturer_Part_Number"
F 8 "815-ABL-24-B2" H 8050 6450 50  0001 L CNN "Mouser Part Number"
F 9 "https://www.mouser.com/Search/Refine.aspx?Keyword=815-ABL-24-B2" H 8050 6350 50  0001 L CNN "Mouser Price/Stock"
F 10 "" H 8050 6250 50  0001 L CNN "RS Part Number"
F 11 "" H 8050 6150 50  0001 L CNN "RS Price/Stock"
	1    7400 6950
	1    0    0    -1  
$EndComp
$Comp
L 156125YV73000:156125YV73000 D2
U 1 1 5DD3E206
P 1450 3800
F 0 "D2" H 1450 3453 50  0000 C CNN
F 1 "GRN/YEL" H 1450 3544 50  0000 C CNN
F 2 "156125YV73000:156125YV73000" H 1480 3800 50  0001 C CNN
F 3 "" H 1480 3800 50  0001 C CNN
	1    1450 3800
	-1   0    0    1   
$EndComp
$Comp
L 156125YV73000:156125YV73000 D3
U 1 1 5DD5EE36
P 1450 4400
F 0 "D3" H 1450 4053 50  0000 C CNN
F 1 "GRN/YEL" H 1450 4144 50  0000 C CNN
F 2 "156125YV73000:156125YV73000" H 1480 4400 50  0001 C CNN
F 3 "" H 1480 4400 50  0001 C CNN
	1    1450 4400
	-1   0    0    1   
$EndComp
$Comp
L 156125YV73000:156125YV73000 D4
U 1 1 5DD4CB38
P 1450 5000
F 0 "D4" H 1450 4653 50  0000 C CNN
F 1 "GRN/YEL" H 1450 4744 50  0000 C CNN
F 2 "156125YV73000:156125YV73000" H 1480 5000 50  0001 C CNN
F 3 "" H 1480 5000 50  0001 C CNN
	1    1450 5000
	-1   0    0    1   
$EndComp
$Comp
L 156125YV73000:156125YV73000 D5
U 1 1 5DD510DC
P 1450 5600
F 0 "D5" H 1450 5253 50  0000 C CNN
F 1 "GRN/YEL" H 1450 5344 50  0000 C CNN
F 2 "156125YV73000:156125YV73000" H 1480 5600 50  0001 C CNN
F 3 "" H 1480 5600 50  0001 C CNN
	1    1450 5600
	-1   0    0    1   
$EndComp
$Comp
L 156125YV73000:156125YV73000 D6
U 1 1 5DD544C6
P 1450 6200
F 0 "D6" H 1450 5853 50  0000 C CNN
F 1 "GRN/YEL" H 1450 5944 50  0000 C CNN
F 2 "156125YV73000:156125YV73000" H 1480 6200 50  0001 C CNN
F 3 "" H 1480 6200 50  0001 C CNN
	1    1450 6200
	-1   0    0    1   
$EndComp
$Comp
L 156125YV73000:156125YV73000 D7
U 1 1 5DD58AD3
P 1450 6800
F 0 "D7" H 1450 6453 50  0000 C CNN
F 1 "GRN/YEL" H 1450 6544 50  0000 C CNN
F 2 "156125YV73000:156125YV73000" H 1480 6800 50  0001 C CNN
F 3 "" H 1480 6800 50  0001 C CNN
	1    1450 6800
	-1   0    0    1   
$EndComp
$Comp
L 156125YV73000:156125YV73000 D8
U 1 1 5DD5A707
P 1450 7400
F 0 "D8" H 1450 7053 50  0000 C CNN
F 1 "GRN/YEL" H 1450 7144 50  0000 C CNN
F 2 "156125YV73000:156125YV73000" H 1480 7400 50  0001 C CNN
F 3 "" H 1480 7400 50  0001 C CNN
	1    1450 7400
	-1   0    0    1   
$EndComp
$Comp
L Regulator_Linear:AP2112K-3.3 U1
U 1 1 5DF1163B
P 2600 1150
F 0 "U1" H 2600 1492 50  0000 C CNN
F 1 "AP2112K-3.3" H 2600 1401 50  0000 C CNN
F 2 "Package_TO_SOT_SMD:SOT-23-5" H 2600 1475 50  0001 C CNN
F 3 "https://www.diodes.com/assets/Datasheets/AP2112.pdf" H 2600 1250 50  0001 C CNN
	1    2600 1150
	1    0    0    -1  
$EndComp
$Comp
L Power_Management:MIC2026-1BM U2
U 1 1 5DCA8A2C
P 8600 1200
F 0 "U2" H 8600 1767 50  0000 C CNN
F 1 "MIC2026-1YM" H 8600 1676 50  0000 C CNN
F 2 "Package_SO:SOIC-8_3.9x4.9mm_P1.27mm" H 8600 1200 50  0001 C CNN
F 3 "http://ww1.microchip.com/downloads/en/DeviceDoc/mic2026.pdf" H 8600 1200 50  0001 C CNN
	1    8600 1200
	1    0    0    -1  
$EndComp
$Comp
L Power_Management:MIC2026-1BM U3
U 1 1 5DCE35E3
P 8600 2700
F 0 "U3" H 8600 3267 50  0000 C CNN
F 1 "MIC2026-1YM" H 8600 3176 50  0000 C CNN
F 2 "Package_SO:SOIC-8_3.9x4.9mm_P1.27mm" H 8600 2700 50  0001 C CNN
F 3 "http://ww1.microchip.com/downloads/en/DeviceDoc/mic2026.pdf" H 8600 2700 50  0001 C CNN
	1    8600 2700
	1    0    0    -1  
$EndComp
$Comp
L Power_Management:MIC2026-1BM U4
U 1 1 5DCE57CD
P 8600 4200
F 0 "U4" H 8600 4767 50  0000 C CNN
F 1 "MIC2026-1YM" H 8600 4676 50  0000 C CNN
F 2 "Package_SO:SOIC-8_3.9x4.9mm_P1.27mm" H 8600 4200 50  0001 C CNN
F 3 "http://ww1.microchip.com/downloads/en/DeviceDoc/mic2026.pdf" H 8600 4200 50  0001 C CNN
	1    8600 4200
	1    0    0    -1  
$EndComp
$Comp
L Power_Management:MIC2026-1BM U5
U 1 1 5DCEAF1A
P 9400 5700
F 0 "U5" H 9400 6267 50  0000 C CNN
F 1 "MIC2026-1YM" H 9400 6176 50  0000 C CNN
F 2 "Package_SO:SOIC-8_3.9x4.9mm_P1.27mm" H 9400 5700 50  0001 C CNN
F 3 "http://ww1.microchip.com/downloads/en/DeviceDoc/mic2026.pdf" H 9400 5700 50  0001 C CNN
	1    9400 5700
	1    0    0    -1  
$EndComp
$Comp
L USB2517-JZX-TR:USB2517-JZX-TR IC1
U 1 1 5DAA0B46
P 3750 2350
F 0 "IC1" V 3800 3550 50  0000 R CNN
F 1 "USB2517-JZX-TR" V 3900 3550 50  0000 R CNN
F 2 "USB2517-JZX-TR:QFN50P900X900X100-65N-D" H 6800 3550 50  0001 L CNN
F 3 "https://componentsearchengine.com/Datasheets/1/USB2517-JZX-TR.pdf" H 6800 3450 50  0001 L CNN
F 4 "USB Interface IC USB 2.0,7 PORT HUB CONTROLLER" H 6800 3350 50  0001 L CNN "Description"
F 5 "1" H 6800 3250 50  0001 L CNN "Height"
F 6 "579-USB2517-JZX-TR" H 6800 3150 50  0001 L CNN "Mouser Part Number"
F 7 "https://www.mouser.com/Search/Refine.aspx?Keyword=579-USB2517-JZX-TR" H 6800 3050 50  0001 L CNN "Mouser Price/Stock"
F 8 "Microchip" H 6800 2950 50  0001 L CNN "Manufacturer_Name"
F 9 "USB2517-JZX-TR" H 6800 2850 50  0001 L CNN "Manufacturer_Part_Number"
	1    3750 2350
	1    0    0    -1  
$EndComp
$EndSCHEMATC
