(module "3105" (layer F.Cu) (tedit 5DD36744)
  (fp_text reference "REF**" (at 0 -1.905 unlocked) (layer F.SilkS)
    (effects (font (size 1 1) (thickness 0.15)))
  )
  (fp_text value "3105" (at 3.175 10.795 unlocked) (layer F.Fab)
    (effects (font (size 1 1) (thickness 0.15)))
  )
  (fp_circle (center 3.272656 4.1656) (end 8.352656 5.4356) (layer F.SilkS) (width 0.12))
  (pad "1" thru_hole circle (at 1.016 1.016) (size 1.524 1.524) (drill 0.762) (layers *.Cu *.Mask))
  (pad "2" thru_hole circle (at 5.588 1.016) (size 1.524 1.524) (drill 0.762) (layers *.Cu *.Mask))
  (pad "3" thru_hole circle (at 0.54102 4.2418) (size 1.524 1.524) (drill 0.762) (layers *.Cu *.Mask))
  (pad "4" thru_hole circle (at 6.00202 4.2418) (size 1.524 1.524) (drill 0.762) (layers *.Cu *.Mask))
  (pad "2" thru_hole circle (at 5.58292 7.45236) (size 1.524 1.524) (drill 0.762) (layers *.Cu *.Mask))
  (pad "1" thru_hole circle (at 1.01092 7.45236) (size 1.524 1.524) (drill 0.762) (layers *.Cu *.Mask))
)
