#VRML V2.0 utf8
# META "generator" "CAD Exchanger 3.4.1 (cadexchanger.com)"
DEF __1 Transform {
  children [
    DEF ASSEMBLY Group {
      children [
        DEF __3 Transform {
          translation 0 0 0.0001
          children [
            DEF Body Group {
              children [
                DEF __5 Shape {
                  appearance DEF __6 Appearance {
                    material DEF __7 Material {
                      ambientIntensity 0.66666662693
                      diffuseColor 0.300000011921 0.300000011921 0.300000011921
                      shininess 0
                    }
                  }
                  geometry DEF __8 IndexedFaceSet {
                    solid FALSE
                    coord Coordinate {
                      point [
                        -0.0016 0.0006 0,
                        -0.0016 0.0006 0.0008,
                        0.0016 0.0006 0.0008,
                        0.0016 0.0006 0,
                        0.0016 -0.0006 0.0008,
                        0.0016 -0.0006 0,
                        -0.0016 -0.0006 0.0008,
                        -0.0016 -0.0006 0

                      ]
                    }
                    normal Normal {
                      vector [
                        -0 1 0,
                        -0 1 0,
                        -0 1 0,
                        -0 1 0,
                        1 0 0,
                        1 0 0,
                        1 0 0,
                        1 0 0,
                        0 -1 0,
                        0 -1 0,
                        0 -1 0,
                        0 -1 0,
                        -1 0 0,
                        -1 0 0,
                        -1 0 0,
                        -1 0 0,
                        -0 -0 -1,
                        -0 -0 -1,
                        -0 -0 -1,
                        -0 -0 -1,
                        0 0 1,
                        0 0 1,
                        0 0 1,
                        0 0 1

                      ]
                    }
                    coordIndex [
                      2 0 1 -1 
                      3 0 2 -1 
                      5 3 2 -1 
                      5 2 4 -1 
                      6 5 4 -1 
                      7 5 6 -1 
                      0 7 6 -1 
                      0 6 1 -1 
                      3 5 7 -1 
                      3 7 0 -1 
                      2 6 4 -1 
                      2 1 6 -1 
                    ]
                    normalIndex [
                      2 0 1 -1 
                      3 0 2 -1 
                      7 4 5 -1 
                      7 5 6 -1 
                      10 8 9 -1 
                      11 8 10 -1 
                      15 12 13 -1 
                      15 13 14 -1 
                      17 18 19 -1 
                      17 19 16 -1 
                      21 23 22 -1 
                      21 20 23 -1 
                    ]
                  }
                }
              ]
            }
          ]
        }
        DEF __9 Transform {
          translation -0.001515 -0.000515 0
          children [
            DEF __10 Group {
              children [
                DEF __11 Shape {
                  appearance DEF __12 Appearance {
                    material DEF __13 Material {
                      ambientIntensity 0.260947436094
                      diffuseColor 0.73400002718 0.773000001907 0.79699999094
                      shininess 0
                    }
                  }
                  geometry DEF __14 IndexedFaceSet {
                    solid FALSE
                    coord Coordinate {
                      point [
                        0 0 0,
                        0 0 0.0001,
                        0 0.00028 0,
                        0 0.00028 0.0001,
                        0.00033 0 0,
                        0.00033 0 0.0001,
                        0.00033 0.00028 0,
                        0.00033 0.00028 0.0001

                      ]
                    }
                    normal Normal {
                      vector [
                        -1 -0 0,
                        -1 -0 0,
                        -1 -0 0,
                        -1 -0 0,
                        1 0 -0,
                        1 0 -0,
                        1 0 -0,
                        1 0 -0,
                        0 -1 -0,
                        0 -1 -0,
                        0 -1 -0,
                        0 -1 -0,
                        -0 1 0,
                        -0 1 0,
                        -0 1 0,
                        -0 1 0,
                        -0 -0 -1,
                        -0 -0 -1,
                        -0 -0 -1,
                        -0 -0 -1,
                        0 0 1,
                        0 0 1,
                        0 0 1,
                        0 0 1

                      ]
                    }
                    coordIndex [
                      0 3 2 -1 
                      1 3 0 -1 
                      4 6 7 -1 
                      5 4 7 -1 
                      4 1 0 -1 
                      5 1 4 -1 
                      6 2 3 -1 
                      7 6 3 -1 
                      6 0 2 -1 
                      6 4 0 -1 
                      7 3 1 -1 
                      7 1 5 -1 
                    ]
                    normalIndex [
                      0 3 2 -1 
                      1 3 0 -1 
                      4 6 7 -1 
                      5 4 7 -1 
                      9 10 8 -1 
                      11 10 9 -1 
                      13 12 14 -1 
                      15 13 14 -1 
                      19 16 17 -1 
                      19 18 16 -1 
                      23 21 20 -1 
                      23 20 22 -1 
                    ]
                  }
                }
              ]
            }
          ]
        }
        DEF __15 Transform {
          translation -0.001515 0.000235 0
          children [
            DEF __16 Group {
              children [
                DEF __17 Shape {
                  appearance USE __12
                  geometry DEF __18 IndexedFaceSet {
                    solid FALSE
                    coord Coordinate {
                      point [
                        0 0 0,
                        0 0 0.0001,
                        0 0.00028 0,
                        0 0.00028 0.0001,
                        0.00033 0 0,
                        0.00033 0 0.0001,
                        0.00033 0.00028 0,
                        0.00033 0.00028 0.0001

                      ]
                    }
                    normal Normal {
                      vector [
                        -1 -0 0,
                        -1 -0 0,
                        -1 -0 0,
                        -1 -0 0,
                        1 0 -0,
                        1 0 -0,
                        1 0 -0,
                        1 0 -0,
                        0 -1 -0,
                        0 -1 -0,
                        0 -1 -0,
                        0 -1 -0,
                        -0 1 0,
                        -0 1 0,
                        -0 1 0,
                        -0 1 0,
                        -0 -0 -1,
                        -0 -0 -1,
                        -0 -0 -1,
                        -0 -0 -1,
                        0 0 1,
                        0 0 1,
                        0 0 1,
                        0 0 1

                      ]
                    }
                    coordIndex [
                      0 3 2 -1 
                      1 3 0 -1 
                      4 6 7 -1 
                      5 4 7 -1 
                      4 1 0 -1 
                      5 1 4 -1 
                      6 2 3 -1 
                      7 6 3 -1 
                      6 0 2 -1 
                      6 4 0 -1 
                      7 3 1 -1 
                      7 1 5 -1 
                    ]
                    normalIndex [
                      0 3 2 -1 
                      1 3 0 -1 
                      4 6 7 -1 
                      5 4 7 -1 
                      9 10 8 -1 
                      11 10 9 -1 
                      13 12 14 -1 
                      15 13 14 -1 
                      19 16 17 -1 
                      19 18 16 -1 
                      23 21 20 -1 
                      23 20 22 -1 
                    ]
                  }
                }
              ]
            }
          ]
        }
        DEF __19 Transform {
          translation 0.001185 0.000235 0
          children [
            DEF __20 Group {
              children [
                DEF __21 Shape {
                  appearance USE __12
                  geometry DEF __22 IndexedFaceSet {
                    solid FALSE
                    coord Coordinate {
                      point [
                        0 0 0,
                        0 0 0.0001,
                        0 0.00028 0,
                        0 0.00028 0.0001,
                        0.00033 0 0,
                        0.00033 0 0.0001,
                        0.00033 0.00028 0,
                        0.00033 0.00028 0.0001

                      ]
                    }
                    normal Normal {
                      vector [
                        -1 -0 0,
                        -1 -0 0,
                        -1 -0 0,
                        -1 -0 0,
                        1 0 -0,
                        1 0 -0,
                        1 0 -0,
                        1 0 -0,
                        0 -1 -0,
                        0 -1 -0,
                        0 -1 -0,
                        0 -1 -0,
                        -0 1 0,
                        -0 1 0,
                        -0 1 0,
                        -0 1 0,
                        -0 -0 -1,
                        -0 -0 -1,
                        -0 -0 -1,
                        -0 -0 -1,
                        0 0 1,
                        0 0 1,
                        0 0 1,
                        0 0 1

                      ]
                    }
                    coordIndex [
                      0 3 2 -1 
                      1 3 0 -1 
                      4 6 7 -1 
                      5 4 7 -1 
                      4 1 0 -1 
                      5 1 4 -1 
                      6 2 3 -1 
                      7 6 3 -1 
                      6 0 2 -1 
                      6 4 0 -1 
                      7 3 1 -1 
                      7 1 5 -1 
                    ]
                    normalIndex [
                      0 3 2 -1 
                      1 3 0 -1 
                      4 6 7 -1 
                      5 4 7 -1 
                      9 10 8 -1 
                      11 10 9 -1 
                      13 12 14 -1 
                      15 13 14 -1 
                      19 16 17 -1 
                      19 18 16 -1 
                      23 21 20 -1 
                      23 20 22 -1 
                    ]
                  }
                }
              ]
            }
          ]
        }
        DEF __23 Transform {
          translation 0.001185 -0.000515 0
          children [
            DEF __24 Group {
              children [
                DEF __25 Shape {
                  appearance USE __12
                  geometry DEF __26 IndexedFaceSet {
                    solid FALSE
                    coord Coordinate {
                      point [
                        0 0 0,
                        0 0 0.0001,
                        0 0.00028 0,
                        0 0.00028 0.0001,
                        0.00033 0 0,
                        0.00033 0 0.0001,
                        0.00033 0.00028 0,
                        0.00033 0.00028 0.0001

                      ]
                    }
                    normal Normal {
                      vector [
                        -1 -0 0,
                        -1 -0 0,
                        -1 -0 0,
                        -1 -0 0,
                        1 0 -0,
                        1 0 -0,
                        1 0 -0,
                        1 0 -0,
                        0 -1 -0,
                        0 -1 -0,
                        0 -1 -0,
                        0 -1 -0,
                        -0 1 0,
                        -0 1 0,
                        -0 1 0,
                        -0 1 0,
                        -0 -0 -1,
                        -0 -0 -1,
                        -0 -0 -1,
                        -0 -0 -1,
                        0 0 1,
                        0 0 1,
                        0 0 1,
                        0 0 1

                      ]
                    }
                    coordIndex [
                      0 3 2 -1 
                      1 3 0 -1 
                      4 6 7 -1 
                      5 4 7 -1 
                      4 1 0 -1 
                      5 1 4 -1 
                      6 2 3 -1 
                      7 6 3 -1 
                      6 0 2 -1 
                      6 4 0 -1 
                      7 3 1 -1 
                      7 1 5 -1 
                    ]
                    normalIndex [
                      0 3 2 -1 
                      1 3 0 -1 
                      4 6 7 -1 
                      5 4 7 -1 
                      9 10 8 -1 
                      11 10 9 -1 
                      13 12 14 -1 
                      15 13 14 -1 
                      19 16 17 -1 
                      19 18 16 -1 
                      23 21 20 -1 
                      23 20 22 -1 
                    ]
                  }
                }
              ]
            }
          ]
        }
      ]
    }
  ]
}
