EESchema Schematic File Version 5
EELAYER 30 0
EELAYER END
$Descr A4 11693 8268
encoding utf-8
Sheet 3 11
Title ""
Date ""
Rev ""
Comp ""
Comment1 ""
Comment2 ""
Comment3 ""
Comment4 ""
Comment5 ""
Comment6 ""
Comment7 ""
Comment8 ""
Comment9 ""
$EndDescr
Connection ~ 2850 3200
Connection ~ 2850 4450
Connection ~ 3150 3000
Connection ~ 3150 3200
Connection ~ 3150 4250
Connection ~ 3150 4450
Connection ~ 5100 3200
Connection ~ 5100 4450
Connection ~ 5400 3000
Connection ~ 5400 3200
Connection ~ 5400 4250
Connection ~ 5400 4450
NoConn ~ 3150 5600
NoConn ~ 3150 5750
Entry Wire Line
	1800 2300 1900 2400
Entry Wire Line
	1800 2500 1900 2600
Entry Wire Line
	1800 2600 1900 2700
Entry Wire Line
	1800 3550 1900 3650
Entry Wire Line
	1800 3750 1900 3850
Entry Wire Line
	1800 3850 1900 3950
Entry Wire Line
	4050 2300 4150 2400
Entry Wire Line
	4050 2500 4150 2600
Entry Wire Line
	4050 2600 4150 2700
Entry Wire Line
	4050 3550 4150 3650
Entry Wire Line
	4050 3750 4150 3850
Entry Wire Line
	4050 3850 4150 3950
Entry Wire Line
	7200 2300 7300 2400
Entry Wire Line
	7200 2400 7300 2500
Entry Wire Line
	7200 2700 7300 2800
Entry Wire Line
	7200 2800 7300 2900
Entry Wire Line
	7200 3550 7300 3650
Entry Wire Line
	7200 3650 7300 3750
Entry Wire Line
	7200 3850 7300 3950
Entry Wire Line
	7200 3950 7300 4050
Wire Wire Line
	2850 3200 2850 3250
Wire Wire Line
	2850 4450 2850 4500
Wire Bus Line
	3150 5350 3150 5300
Wire Wire Line
	5100 3200 5100 3250
Wire Wire Line
	5100 4450 5100 4500
Wire Bus Line
	1700 2200 1800 2200
Wire Bus Line
	1700 3450 1800 3450
Wire Bus Line
	1700 6350 1800 6350
Wire Bus Line
	1700 6550 1800 6550
Wire Wire Line
	1700 6650 1800 6650
Wire Wire Line
	1700 6750 1800 6750
Wire Bus Line
	1800 2200 1800 2300
Wire Bus Line
	1800 3750 1800 3850
Wire Bus Line
	1800 6250 1700 6250
Wire Bus Line
	3050 5600 3150 5600
Wire Bus Line
	3050 5750 3150 5750
Wire Bus Line
	3150 5300 3050 5300
Wire Bus Line
	3250 5250 3250 5150
Wire Bus Line
	3950 2200 4050 2200
Wire Bus Line
	3950 3450 4050 3450
Wire Bus Line
	4050 2500 4050 2600
Wire Bus Line
	4050 3750 4050 3850
Wire Bus Line
	4900 1300 5000 1300
Wire Bus Line
	5250 5250 5350 5250
Wire Bus Line
	5250 5350 5350 5350
Wire Wire Line
	5600 6900 5500 6900
Wire Bus Line
	6950 5600 7050 5600
Wire Bus Line
	6950 5900 7050 5900
Wire Bus Line
	7050 5000 6950 5000
Wire Bus Line
	7050 5600 7050 5700
Wire Bus Line
	7050 5900 7050 6000
Wire Bus Line
	7100 2300 7200 2300
Wire Bus Line
	7100 2700 7200 2700
Wire Bus Line
	7100 3550 7200 3550
Wire Bus Line
	7100 3850 7200 3850
Wire Bus Line
	7200 2500 7100 2500
Wire Bus Line
	7200 2700 7200 2800
Wire Bus Line
	7200 3550 7200 3650
Wire Bus Line
	7200 3850 7200 3950
Wire Wire Line
	8300 2500 8300 2600
Wire Wire Line
	8300 2600 8400 2600
Wire Wire Line
	8300 2800 8300 2700
Wire Wire Line
	8400 2700 8300 2700
Wire Bus Line
	8450 5000 8350 5000
Wire Wire Line
	8450 5100 8350 5100
Wire Bus Line
	8450 5200 8350 5200
Wire Bus Line
	8450 5300 8350 5300
Wire Wire Line
	8800 3650 8900 3650
Wire Wire Line
	8900 2600 8800 2600
Wire Wire Line
	8900 2700 8800 2700
Wire Wire Line
	8900 3650 8900 3750
Wire Bus Line
	9000 1150 9100 1150
Wire Bus Line
	10350 950  10450 950 
Wire Bus Line
	10350 1050 10450 1050
Wire Bus Line
	10350 1150 10450 1150
Wire Bus Line
	10350 1250 10450 1250
Wire Bus Line
	10350 1350 10450 1350
Wire Bus Line
	10450 1450 10350 1450
Wire Bus Line
	10450 1550 10350 1550
Wire Wire Line
	8450 4250 8300 4250
Wire Wire Line
	8900 4250 8750 4250
Wire Wire Line
	2850 3000 2850 3200
Wire Wire Line
	2850 4250 2850 4450
Wire Wire Line
	2950 3000 3150 3000
Wire Wire Line
	2950 4250 3150 4250
Wire Wire Line
	3150 3000 3350 3000
Wire Wire Line
	3150 3200 3350 3200
Wire Wire Line
	3150 4250 3350 4250
Wire Wire Line
	3150 4450 3350 4450
Wire Bus Line
	3250 5150 3050 5150
Wire Bus Line
	5000 1300 5000 1500
Wire Wire Line
	5100 3000 5100 3200
Wire Wire Line
	5100 4250 5100 4450
Wire Wire Line
	5200 3000 5400 3000
Wire Wire Line
	5200 4250 5400 4250
Wire Wire Line
	5400 3000 5600 3000
Wire Wire Line
	5400 3200 5600 3200
Wire Wire Line
	5400 4250 5600 4250
Wire Wire Line
	5400 4450 5600 4450
Wire Bus Line
	7200 2300 7200 2500
Wire Wire Line
	8300 2400 8300 2200
Wire Wire Line
	8300 4250 8300 4050
Wire Wire Line
	8900 2700 8900 2900
Wire Bus Line
	3350 6250 3100 6250
Wire Bus Line
	3700 5750 3450 5750
Wire Bus Line
	3950 6900 4200 6900
Wire Wire Line
	3950 7000 4200 7000
Wire Bus Line
	1800 2300 1800 2600
Wire Bus Line
	1800 3450 1800 3750
Wire Wire Line
	2850 3200 3150 3200
Wire Wire Line
	2850 4450 3150 4450
Wire Bus Line
	4050 2200 4050 2500
Wire Bus Line
	4050 3450 4050 3750
Wire Wire Line
	5100 3200 5400 3200
Wire Wire Line
	5100 4450 5400 4450
Wire Wire Line
	8900 3950 8900 4250
Wire Bus Line
	3450 6350 3100 6350
Wire Bus Line
	3700 5650 3350 5650
Wire Wire Line
	8900 2200 8900 2600
Wire Bus Line
	3700 5250 3250 5250
Wire Bus Line
	3700 5350 3150 5350
Wire Bus Line
	3350 5650 3350 6250
Wire Bus Line
	3450 5750 3450 6350
Wire Wire Line
	8300 2200 8900 2200
Wire Wire Line
	1900 2400 2550 2400
Wire Wire Line
	1900 2600 2550 2600
Wire Wire Line
	1900 2700 2550 2700
Wire Wire Line
	1900 3650 2550 3650
Wire Wire Line
	1900 3850 2550 3850
Wire Wire Line
	1900 3950 2550 3950
Wire Bus Line
	3050 5450 3700 5450
Wire Wire Line
	4150 2400 4800 2400
Wire Wire Line
	4150 2600 4800 2600
Wire Wire Line
	4150 2700 4800 2700
Wire Wire Line
	4150 3650 4800 3650
Wire Wire Line
	4150 3850 4800 3850
Wire Wire Line
	4150 3950 4800 3950
Wire Notes Line
	6250 2100 6250 3000
Wire Notes Line
	9000 2100 9000 3000
Wire Wire Line
	7300 2400 8300 2400
Wire Wire Line
	7300 2500 8300 2500
Wire Wire Line
	7300 2800 8300 2800
Wire Wire Line
	7300 4050 8300 4050
Wire Wire Line
	7300 3650 8400 3650
Wire Notes Line
	6250 3250 6250 4450
Wire Notes Line
	9000 4450 9000 3250
Wire Notes Line
	6250 6200 6250 4700
Wire Notes Line
	9200 4700 9200 6200
Wire Wire Line
	7300 2900 8900 2900
Wire Wire Line
	7300 3750 8900 3750
Wire Wire Line
	7300 3950 8900 3950
Wire Notes Line
	1000 4450 1000 2050
Wire Notes Line
	5900 2050 5900 4450
Wire Notes Line
	1000 7300 1000 4700
Wire Notes Line
	6000 7300 6000 4700
Wire Notes Line
	6250 2100 9000 2100
Wire Notes Line
	6250 4450 9000 4450
Wire Notes Line
	9000 3000 6250 3000
Wire Notes Line
	9000 3250 6250 3250
Wire Notes Line
	6250 4700 9200 4700
Wire Notes Line
	9200 6200 6250 6200
Wire Notes Line
	1000 2050 5900 2050
Wire Notes Line
	1000 4450 5900 4450
Wire Notes Line
	1000 4700 6000 4700
Wire Notes Line
	1000 7300 6000 7300
Text Notes 1000 2000 0    50   ~ 0
USB-A Connectors
Text Notes 1000 4650 0    50   ~ 0
Motion Platform interface
Text Notes 6250 2050 0    50   ~ 0
Power button / LED for Compute Platform motherboard\nPWRBTN_IN comes from PSU, PWRBTN_OUT goes to motherboard
Text Notes 6250 3200 0    50   ~ 0
Other buttons / LEDs for Compute Platform motherboard
Text Notes 6250 4650 0    50   ~ 0
Scanning System Interface
Text Label 1700 6250 2    50   ~ 0
USB_M{USB}
Text Label 1700 6550 2    50   ~ 0
IMU_I2C{I2C}
Text Label 1700 6650 2    50   ~ 0
IMU_RST
Text Label 1700 6750 2    50   ~ 0
IMU_INT
Text Label 1900 2400 0    50   ~ 0
USB_GPS.VBUS
Text Label 1900 2600 0    50   ~ 0
USB_GPS.D+
Text Label 1900 2700 0    50   ~ 0
USB_GPS.D-
Text Label 1900 3650 0    50   ~ 0
USB_E1.VBUS
Text Label 1900 3850 0    50   ~ 0
USB_E1.D+
Text Label 1900 3950 0    50   ~ 0
USB_E1.D-
Text Label 3950 6900 2    50   ~ 0
IMU_I2C{I2C}
Text Label 3950 7000 2    50   ~ 0
IMU_RST
Text Label 4150 2400 0    50   ~ 0
USB_XBEE.VBUS
Text Label 4150 2600 0    50   ~ 0
USB_XBEE.D+
Text Label 4150 2700 0    50   ~ 0
USB_XBEE.D-
Text Label 4150 3650 0    50   ~ 0
USB_E2.VBUS
Text Label 4150 3850 0    50   ~ 0
USB_E2.D+
Text Label 4150 3950 0    50   ~ 0
USB_E2.D-
Text Label 5600 6900 0    50   ~ 0
IMU_INT
Text Label 6950 5000 2    50   ~ 0
USB_L{USB}
Text Label 7300 3650 0    50   ~ 0
RESETBTN.VCC
Text Label 7300 3750 0    50   ~ 0
RESETBTN.GND
Text Label 7300 3950 0    50   ~ 0
HDLED.VCC
Text Label 7300 4050 0    50   ~ 0
HDLED.GND
Text Label 7350 2400 0    50   ~ 0
PWRBTN_OUT.VCC
Text Label 7350 2500 0    50   ~ 0
PWRBTN_OUT.GND
Text Label 7350 2800 0    50   ~ 0
PWRLED.GND
Text Label 7350 2900 0    50   ~ 0
PWRLED.VCC
Text Label 10450 950  0    50   ~ 0
USB_L{USB}
Text Label 10450 1050 0    50   ~ 0
USB_M{USB}
Text HLabel 1700 2200 0    50   Input ~ 0
USB_GPS{USB}
Text HLabel 1700 3450 0    50   Input ~ 0
USB_E1{USB}
Text HLabel 1700 6350 0    50   Input ~ 0
M_RPM{SERVO}
Text HLabel 3950 2200 0    50   Input ~ 0
USB_XBEE{USB}
Text HLabel 3950 3450 0    50   Input ~ 0
USB_E2{USB}
Text HLabel 4900 1300 0    50   Input ~ 0
PWR{MOLEX}
Text HLabel 5350 5250 2    50   Input ~ 0
M_ST{SERVO}
Text HLabel 5350 5350 2    50   Input ~ 0
M_TH{SERVO}
Text HLabel 6950 5600 0    50   Input ~ 0
LL_PWR{PWR}
Text HLabel 6950 5900 0    50   Input ~ 0
LM_PWR{PWR}
Text HLabel 7100 2300 0    50   Input ~ 0
PWRBTN_IN{PWR}
Text HLabel 7100 2500 0    50   Input ~ 0
PWRBTN_OUT{PWR}
Text HLabel 7100 2700 0    50   Input ~ 0
PWRLED{PWR}
Text HLabel 7100 3550 0    50   Input ~ 0
RESETBTN{PWR}
Text HLabel 7100 3850 0    50   Input ~ 0
HDLED{PWR}
Text HLabel 8450 5000 2    50   Input ~ 0
LL_UART{UART}
Text HLabel 8450 5100 2    50   Input ~ 0
LL_SYN
Text HLabel 8450 5200 2    50   Input ~ 0
LM_PWM{SERVO}
Text HLabel 8450 5300 2    50   Input ~ 0
LM_ENC{QE}
Text HLabel 9000 1150 0    50   Input ~ 0
{USB}
Text HLabel 10450 1150 2    50   Input ~ 0
USB_GPS{USB}
Text HLabel 10450 1250 2    50   Input ~ 0
USB_XBEE{USB}
Text HLabel 10450 1350 2    50   Input ~ 0
USB_E1{USB}
Text HLabel 10450 1450 2    50   Input ~ 0
USB_E2{USB}
Text HLabel 10450 1550 2    50   Input ~ 0
USB_PSU{USB}
$Comp
L power:GND #PWR0101
U 1 1 5E5361DE
P 2850 3250
F 0 "#PWR0101" H 2850 3000 50  0001 C CNN
F 1 "GND" H 2855 3077 50  0000 C CNN
F 2 "" H 2850 3250 50  0001 C CNN
F 3 "" H 2850 3250 50  0001 C CNN
	1    2850 3250
	1    0    0    -1  
$EndComp
$Comp
L power:GND #PWR0102
U 1 1 5E53650A
P 2850 4500
F 0 "#PWR0102" H 2850 4250 50  0001 C CNN
F 1 "GND" H 2855 4327 50  0000 C CNN
F 2 "" H 2850 4500 50  0001 C CNN
F 3 "" H 2850 4500 50  0001 C CNN
	1    2850 4500
	1    0    0    -1  
$EndComp
$Comp
L power:GND #PWR0104
U 1 1 5E536C11
P 5100 3250
F 0 "#PWR0104" H 5100 3000 50  0001 C CNN
F 1 "GND" H 5105 3077 50  0000 C CNN
F 2 "" H 5100 3250 50  0001 C CNN
F 3 "" H 5100 3250 50  0001 C CNN
	1    5100 3250
	1    0    0    -1  
$EndComp
$Comp
L power:GND #PWR0103
U 1 1 5E53734D
P 5100 4500
F 0 "#PWR0103" H 5100 4250 50  0001 C CNN
F 1 "GND" H 5105 4327 50  0000 C CNN
F 2 "" H 5100 4500 50  0001 C CNN
F 3 "" H 5100 4500 50  0001 C CNN
	1    5100 4500
	1    0    0    -1  
$EndComp
$Comp
L Device:R_Small_US R1
U 1 1 5E3C6FD4
P 3150 3100
F 0 "R1" V 3354 3100 50  0000 C CNN
F 1 "330" V 3263 3100 50  0000 C CNN
F 2 "res_smd:R_0603_1608Metric_Pad1.05x0.95mm_HandSolder" H 3150 3100 50  0001 C CNN
F 3 "~" H 3150 3100 50  0001 C CNN
	1    3150 3100
	-1   0    0    1   
$EndComp
$Comp
L Device:R_Small_US R2
U 1 1 5E3CEE65
P 3150 4350
F 0 "R2" V 3354 4350 50  0000 C CNN
F 1 "330" V 3263 4350 50  0000 C CNN
F 2 "res_smd:R_0603_1608Metric_Pad1.05x0.95mm_HandSolder" H 3150 4350 50  0001 C CNN
F 3 "~" H 3150 4350 50  0001 C CNN
	1    3150 4350
	-1   0    0    1   
$EndComp
$Comp
L Device:R_Small_US R3
U 1 1 5E3CD0B1
P 5400 3100
F 0 "R3" V 5604 3100 50  0000 C CNN
F 1 "330" V 5513 3100 50  0000 C CNN
F 2 "res_smd:R_0603_1608Metric_Pad1.05x0.95mm_HandSolder" H 5400 3100 50  0001 C CNN
F 3 "~" H 5400 3100 50  0001 C CNN
	1    5400 3100
	-1   0    0    1   
$EndComp
$Comp
L Device:R_Small_US R4
U 1 1 5E3CDB3C
P 5400 4350
F 0 "R4" V 5604 4350 50  0000 C CNN
F 1 "330" V 5513 4350 50  0000 C CNN
F 2 "res_smd:R_0603_1608Metric_Pad1.05x0.95mm_HandSolder" H 5400 4350 50  0001 C CNN
F 3 "~" H 5400 4350 50  0001 C CNN
	1    5400 4350
	-1   0    0    1   
$EndComp
$Comp
L Device:C_Small C1
U 1 1 5E3C8532
P 3350 3100
F 0 "C1" V 3200 3100 50  0000 C CNN
F 1 "0.1u" V 3100 3100 50  0000 C CNN
F 2 "cap_smd:C_0603_1608Metric_Pad1.05x0.95mm_HandSolder" H 3350 3100 50  0001 C CNN
F 3 "~" H 3350 3100 50  0001 C CNN
	1    3350 3100
	-1   0    0    1   
$EndComp
$Comp
L Device:C_Small C2
U 1 1 5E3CEE44
P 3350 4350
F 0 "C2" V 3200 4350 50  0000 C CNN
F 1 "0.1u" V 3100 4350 50  0000 C CNN
F 2 "cap_smd:C_0603_1608Metric_Pad1.05x0.95mm_HandSolder" H 3350 4350 50  0001 C CNN
F 3 "~" H 3350 4350 50  0001 C CNN
	1    3350 4350
	-1   0    0    1   
$EndComp
$Comp
L Device:C_Small C3
U 1 1 5E3CD090
P 5600 3100
F 0 "C3" V 5450 3100 50  0000 C CNN
F 1 "0.1u" V 5350 3100 50  0000 C CNN
F 2 "cap_smd:C_0603_1608Metric_Pad1.05x0.95mm_HandSolder" H 5600 3100 50  0001 C CNN
F 3 "~" H 5600 3100 50  0001 C CNN
	1    5600 3100
	-1   0    0    1   
$EndComp
$Comp
L Device:C_Small C4
U 1 1 5E3CDB1B
P 5600 4350
F 0 "C4" V 5450 4350 50  0000 C CNN
F 1 "0.1u" V 5350 4350 50  0000 C CNN
F 2 "cap_smd:C_0603_1608Metric_Pad1.05x0.95mm_HandSolder" H 5600 4350 50  0001 C CNN
F 3 "~" H 5600 4350 50  0001 C CNN
	1    5600 4350
	-1   0    0    1   
$EndComp
$Comp
L Device:LED D1
U 1 1 5DD8C58B
P 8600 4250
F 0 "D1" H 8593 4466 50  0000 C CNN
F 1 "LED" H 8593 4375 50  0000 C CNN
F 2 "LED_SMD:LED_0603_1608Metric_Pad1.05x0.95mm_HandSolder" H 8600 4250 50  0001 C CNN
F 3 "~" H 8600 4250 50  0001 C CNN
	1    8600 4250
	1    0    0    -1  
$EndComp
$Comp
L Switch:SW_Push SW2
U 1 1 5DD8B374
P 8600 3650
F 0 "SW2" H 8600 3935 50  0000 C CNN
F 1 "SW_Push" H 8600 3844 50  0000 C CNN
F 2 "Button_Switch_SMD:SW_SPST_PTS645" H 8600 3850 50  0001 C CNN
F 3 "~" H 8600 3850 50  0001 C CNN
	1    8600 3650
	1    0    0    -1  
$EndComp
$Comp
L Switch:SW_Push_LED SW1
U 1 1 5DB8635C
P 8600 2700
F 0 "SW1" H 8600 3085 50  0000 C CNN
F 1 "SW_Push_LED" H 8600 2994 50  0000 C CNN
F 2 "Sprite:3105" H 8600 3000 50  0001 C CNN
F 3 "~" H 8600 3000 50  0001 C CNN
	1    8600 2700
	1    0    0    -1  
$EndComp
$Comp
L Connector:USB_A J6
U 1 1 5E3BC75A
P 2850 2600
F 0 "J6" H 2620 2589 50  0000 R CNN
F 1 "USB_A" H 2620 2498 50  0000 R CNN
F 2 "Digikey:USB_A_Female_Vertical_RA_73725-0110BLF" H 3000 2550 50  0001 C CNN
F 3 " ~" H 3000 2550 50  0001 C CNN
	1    2850 2600
	-1   0    0    -1  
$EndComp
$Comp
L Connector:USB_A J7
U 1 1 5E3C35A7
P 2850 3850
F 0 "J7" H 2620 3839 50  0000 R CNN
F 1 "USB_A" H 2620 3748 50  0000 R CNN
F 2 "Digikey:USB_A_Female_Vertical_RA_73725-0110BLF" H 3000 3800 50  0001 C CNN
F 3 " ~" H 3000 3800 50  0001 C CNN
	1    2850 3850
	-1   0    0    -1  
$EndComp
$Comp
L Connector:USB_A J10
U 1 1 5E3C1596
P 5100 2600
F 0 "J10" H 4870 2589 50  0000 R CNN
F 1 "USB_A" H 4870 2498 50  0000 R CNN
F 2 "Digikey:USB_A_Female_Vertical_RA_73725-0110BLF" H 5250 2550 50  0001 C CNN
F 3 " ~" H 5250 2550 50  0001 C CNN
	1    5100 2600
	-1   0    0    -1  
$EndComp
$Comp
L Connector:USB_A J11
U 1 1 5E3C5348
P 5100 3850
F 0 "J11" H 4870 3839 50  0000 R CNN
F 1 "USB_A" H 4870 3748 50  0000 R CNN
F 2 "Digikey:USB_A_Female_Vertical_RA_73725-0110BLF" H 5250 3800 50  0001 C CNN
F 3 " ~" H 5250 3800 50  0001 C CNN
	1    5100 3850
	-1   0    0    -1  
$EndComp
$Sheet
S 3700 5150 1550 700 
U 5DA9BAA0
F0 "Manual Override" 50
F1 "InterfaceBoard/ManualOverride.sch" 50
F2 "IM1A{SERVO}" I L 3700 5250 50 
F3 "IM2A{SERVO}" I L 3700 5350 50 
F4 "IM3A{SERVO}" I L 3700 5450 50 
F5 "IM1B{SERVO}" I L 3700 5650 50 
F6 "IM2B{SERVO}" I L 3700 5750 50 
F7 "IM1Y{SERVO}" I R 5250 5250 50 
F8 "IM2Y{SERVO}" I R 5250 5350 50 
$EndSheet
$Sheet
S 9100 850  1250 800 
U 5DAA0908
F0 "USB Hub" 50
F1 "InterfaceBoard/USBHub.sch" 50
F2 "DN6{USB}" I R 10350 1450 50 
F3 "DN5{USB}" I R 10350 1350 50 
F4 "DN3{USB}" I R 10350 1150 50 
F5 "DN1{USB}" I R 10350 950 50 
F6 "DN2{USB}" I R 10350 1050 50 
F7 "DN4{USB}" I R 10350 1250 50 
F8 "DN7{USB}" I R 10350 1550 50 
F9 "UP{USB}" I L 9100 1150 50 
$EndSheet
$Sheet
S 7050 4900 1300 500 
U 5DB1567D
F0 "L Subsystem Control" 50
F1 "InterfaceBoard/LControl.sch" 50
F2 "{USB}" I L 7050 5000 50 
F3 "{UART}" I R 8350 5000 50 
F4 "SYN" I R 8350 5100 50 
F5 "{SERVO}" I R 8350 5200 50 
F6 "{QE}" I R 8350 5300 50 
$EndSheet
$Sheet
S 1800 6150 1300 700 
U 5DB156B7
F0 "M Subsystem Control" 50
F1 "InterfaceBoard/MControl.sch" 50
F2 "STEERING{SERVO}" I R 3100 6250 50 
F3 "THROTTLE{SERVO}" I R 3100 6350 50 
F4 "{USB}" I L 1800 6250 50 
F5 "RPM{SERVO}" I L 1800 6350 50 
F6 "{I2C}" I L 1800 6550 50 
F7 "RST" I L 1800 6650 50 
F8 "INT" I L 1800 6750 50 
$EndSheet
$Sheet
S 4200 6700 1300 400 
U 5DB2D913
F0 "BNO055 (IMU)" 50
F1 "InterfaceBoard/BNO055.sch" 50
F2 "{I2C}" I L 4200 6900 50 
F3 "RST" I L 4200 7000 50 
F4 "INT" I R 5500 6900 50 
$EndSheet
$Sheet
S 1800 5050 1250 800 
U 5DD39017
F0 "5ch Receiver" 50
F1 "InterfaceBoard/Receiver.sch" 50
F2 "TR2{SERVO}" I R 3050 5300 50 
F3 "TR3{SERVO}" I R 3050 5450 50 
F4 "TR4{SERVO}" I R 3050 5600 50 
F5 "TR5{SERVO}" I R 3050 5750 50 
F6 "TR1{SERVO}" I R 3050 5150 50 
$EndSheet
$EndSCHEMATC
